<?xml version="1.0" encoding="UTF-8" standalone="no"?>
<!-- Created with Inkscape (http://www.inkscape.org/) -->

<svg
   xmlns:dc="http://purl.org/dc/elements/1.1/"
   xmlns:cc="http://creativecommons.org/ns#"
   xmlns:rdf="http://www.w3.org/1999/02/22-rdf-syntax-ns#"
   xmlns:svg="http://www.w3.org/2000/svg"
   xmlns="http://www.w3.org/2000/svg"
   xmlns:sodipodi="http://sodipodi.sourceforge.net/DTD/sodipodi-0.dtd"
   xmlns:inkscape="http://www.inkscape.org/namespaces/inkscape"
   width="7.0399098mm"
   height="7.0331717mm"
   viewBox="0 0 7.0399098 7.0331717"
   version="1.1"
   id="svg3776"
   inkscape:version="0.92.2 (30a58d1, 2017-08-07)"
   sodipodi:docname="flexas.svg">
  <defs
     id="defs3770">
    <clipPath
       clipPathUnits="userSpaceOnUse"
       id="clipPath2493">
      <path
         d="M 0,7464 H 1440 V 0 H 0 Z"
         id="path2491"
         inkscape:connector-curvature="0" />
    </clipPath>
  </defs>
  <sodipodi:namedview
     id="base"
     pagecolor="#ffffff"
     bordercolor="#666666"
     borderopacity="1.0"
     inkscape:pageopacity="0.0"
     inkscape:pageshadow="2"
     inkscape:zoom="2.8"
     inkscape:cx="-6.1656409"
     inkscape:cy="59.648173"
     inkscape:document-units="mm"
     inkscape:current-layer="layer1"
     showgrid="false"
     inkscape:window-width="1366"
     inkscape:window-height="660"
     inkscape:window-x="0"
     inkscape:window-y="27"
     inkscape:window-maximized="1" />
  <metadata
     id="metadata3773">
    <rdf:RDF>
      <cc:Work
         rdf:about="">
        <dc:format>image/svg+xml</dc:format>
        <dc:type
           rdf:resource="http://purl.org/dc/dcmitype/StillImage" />
        <dc:title></dc:title>
      </cc:Work>
    </rdf:RDF>
  </metadata>
  <g
     inkscape:label="Camada 1"
     inkscape:groupmode="layer"
     id="layer1"
     transform="translate(-35.789567,-132.46552)">
    <g
       transform="matrix(0.35277777,0,0,-0.35277777,-396.36306,2737.0188)"
       id="g2487"
       style="fill:#000000;fill-opacity:1">
      <g
         id="g2489"
         clip-path="url(#clipPath2493)"
         style="fill:#000000;fill-opacity:1">
        <g
           id="g2495"
           transform="translate(1244.7246,7380.0181)"
           style="fill:#000000;fill-opacity:1">
          <path
             d="m 0,0 -2.907,2.754 c -0.302,0.285 -0.792,0.285 -1.097,0 -0.302,-0.284 -0.302,-0.747 0,-1.036 l 1.591,-1.503 h -3.109 c -3.669,0 -6.655,-2.819 -6.655,-6.284 V -7.93 c 0,-2.661 -2.292,-4.822 -5.104,-4.822 h -1.669 c -0.426,0 -0.775,-0.33 -0.775,-0.732 0,-0.402 0.344,-0.731 0.775,-0.731 h 1.669 c 3.669,0 6.653,2.819 6.653,6.285 v 1.861 c 0,2.661 2.293,4.822 5.106,4.822 h 3.109 L -4.004,-2.75 c -0.302,-0.285 -0.302,-0.748 0,-1.036 0.15,-0.143 0.348,-0.215 0.546,-0.215 0.198,0 0.395,0.072 0.546,0.215 L 0,-1.036 C 0.301,-0.751 0.301,-0.289 0,0"
             style="fill:#000000;fill-opacity:1;fill-rule:nonzero;stroke:none"
             id="path2497"
             inkscape:connector-curvature="0" />
        </g>
        <g
           id="g2499"
           transform="translate(1232.2129,7378.3281)"
           style="fill:#000000;fill-opacity:1">
          <path
             d="m 0,0 c -1.261,1.231 -2.955,1.905 -4.77,1.905 h -1.668 c -0.426,0 -0.775,-0.329 -0.775,-0.731 0,-0.402 0.344,-0.731 0.775,-0.731 h 1.668 c 1.389,0 2.693,-0.52 3.661,-1.463 0.15,-0.146 0.352,-0.223 0.554,-0.223 0.194,0 0.387,0.069 0.537,0.207 C 0.288,-0.756 0.297,-0.292 0,0"
             style="fill:#000000;fill-opacity:1;fill-rule:nonzero;stroke:none"
             id="path2501"
             inkscape:connector-curvature="0" />
        </g>
        <g
           id="g2503"
           transform="translate(1244.7295,7367.0503)"
           style="fill:#000000;fill-opacity:1">
          <path
             d="m 0,0 -2.912,2.75 c -0.302,0.285 -0.792,0.285 -1.097,0 -0.302,-0.284 -0.302,-0.747 0,-1.036 l 1.591,-1.503 h -3.109 c -1.394,0 -2.693,0.52 -3.661,1.463 -0.296,0.288 -0.787,0.296 -1.096,0.016 -0.306,-0.28 -0.315,-0.743 -0.018,-1.036 1.265,-1.227 2.959,-1.905 4.775,-1.905 h 3.109 l -1.591,-1.503 c -0.302,-0.285 -0.302,-0.744 0.004,-1.032 0.151,-0.142 0.349,-0.215 0.547,-0.215 0.197,0 0.395,0.073 0.546,0.215 L 0,-1.036 C 0.301,-0.751 0.301,-0.289 0,0"
             style="fill:#000000;fill-opacity:1;fill-rule:nonzero;stroke:none"
             id="path2505"
             inkscape:connector-curvature="0" />
        </g>
      </g>
    </g>
  </g>
</svg>
