<?xml version="1.0" encoding="UTF-8" standalone="no"?>
<!-- Created with Inkscape (http://www.inkscape.org/) -->

<svg
   xmlns:dc="http://purl.org/dc/elements/1.1/"
   xmlns:cc="http://creativecommons.org/ns#"
   xmlns:rdf="http://www.w3.org/1999/02/22-rdf-syntax-ns#"
   xmlns:svg="http://www.w3.org/2000/svg"
   xmlns="http://www.w3.org/2000/svg"
   xmlns:sodipodi="http://sodipodi.sourceforge.net/DTD/sodipodi-0.dtd"
   xmlns:inkscape="http://www.inkscape.org/namespaces/inkscape"
   width="21.607639mm"
   height="21.607603mm"
   viewBox="0 0 21.607639 21.607603"
   version="1.1"
   id="svg18561"
   inkscape:version="0.92.2 (30a58d1, 2017-08-07)"
   sodipodi:docname="icon1-planos.svg">
  <defs
     id="defs18555">
    <clipPath
       clipPathUnits="userSpaceOnUse"
       id="clipPath17658">
      <path
         d="M 0,4852.754 H 1440 V 0 H 0 Z"
         id="path17656"
         inkscape:connector-curvature="0" />
    </clipPath>
  </defs>
  <sodipodi:namedview
     id="base"
     pagecolor="#ffffff"
     bordercolor="#666666"
     borderopacity="1.0"
     inkscape:pageopacity="0.0"
     inkscape:pageshadow="2"
     inkscape:zoom="3.959798"
     inkscape:cx="73.899957"
     inkscape:cy="43.750952"
     inkscape:document-units="mm"
     inkscape:current-layer="layer1"
     showgrid="false"
     inkscape:window-width="1366"
     inkscape:window-height="660"
     inkscape:window-x="0"
     inkscape:window-y="27"
     inkscape:window-maximized="1" />
  <metadata
     id="metadata18558">
    <rdf:RDF>
      <cc:Work
         rdf:about="">
        <dc:format>image/svg+xml</dc:format>
        <dc:type
           rdf:resource="http://purl.org/dc/dcmitype/StillImage" />
        <dc:title></dc:title>
      </cc:Work>
    </rdf:RDF>
  </metadata>
  <g
     inkscape:label="Camada 1"
     inkscape:groupmode="layer"
     id="layer1"
     transform="translate(109.83358,-90.404509)">
    <g
       transform="matrix(0.35277777,0,0,-0.35277777,-229.55754,1545.3937)"
       id="g17652"
       style="fill-opacity:1;fill:#000000">
      <g
         id="g17654"
         clip-path="url(#clipPath17658)"
         style="fill-opacity:1;fill:#000000">
        <g
           id="g17660"
           transform="translate(343.4321,4069.26)"
           style="fill-opacity:1;fill:#000000">
          <path
             d="m 0,0 c -1.143,0 -2.073,-0.93 -2.073,-2.073 0,-1.144 0.93,-2.073 2.073,-2.073 h 11.24 c 0.58,0 1.052,0.471 1.052,1.05 0,0.58 -0.472,1.053 -1.052,1.053 -0.547,0 -0.991,0.445 -0.991,0.992 0,1.706 -1.389,3.095 -3.096,3.095 -1.707,0 -3.095,-1.389 -3.095,-3.095 0,-0.48 -0.342,-0.891 -0.813,-0.976 C 2.749,-2.101 2.303,-1.846 2.137,-1.399 1.825,-0.562 0.966,0 0,0 M 11.24,-6.131 H 0 c -2.237,0 -4.057,1.82 -4.057,4.058 0,2.237 1.82,4.057 4.057,4.057 h 0.03 v 16.379 c 0,0.547 0.445,0.992 0.992,0.992 0.547,0 0.993,-0.445 0.993,-0.992 L 2.032,1.482 C 2.227,1.382 2.396,1.279 2.547,1.171 L 2.576,1.15 2.592,1.183 c 0.863,1.755 2.611,2.845 4.561,2.845 2.479,0 4.584,-1.771 5.005,-4.212 l 0.02,-0.022 c 1.255,-0.41 2.098,-1.571 2.098,-2.89 0,-1.674 -1.362,-3.035 -3.036,-3.035"
             style="fill:#000000;fill-opacity:1;fill-rule:nonzero;stroke:none"
             id="path17662"
             inkscape:connector-curvature="0" />
        </g>
        <g
           id="g17664"
           transform="translate(340.187,4089.8479)"
           style="fill-opacity:1;fill:#000000">
          <path
             d="m 0,0 c 0,0 -0.001,-0.001 -0.001,-0.002 z m 0.181,-1.172 c -0.126,0 -0.253,0.024 -0.373,0.073 -0.377,0.16 -0.616,0.519 -0.616,0.918 l -0.004,25.545 c 0,0.262 0.106,0.519 0.292,0.704 0.187,0.185 0.441,0.288 0.7,0.288 h 11.27 v 2.104 h -1.052 c -0.546,0 -0.992,0.445 -0.992,0.992 v 4.087 c 0,0.547 0.446,0.992 0.992,0.992 h 8.175 c 0.547,0 0.991,-0.445 0.991,-0.992 v -4.087 c 0,-0.547 -0.444,-0.992 -0.991,-0.992 h -1.052 v -2.104 h 2.074 c 0.547,0 0.991,-0.445 0.991,-0.992 0,-0.547 -0.444,-0.991 -0.991,-0.991 h -3.066 c -0.547,0 -0.992,0.444 -0.992,0.991 v 4.088 c 0,0.547 0.445,0.991 0.992,0.991 h 1.052 v 2.105 h -6.19 v -2.105 h 1.051 c 0.547,0 0.992,-0.444 0.992,-0.991 v -4.088 c 0,-0.547 -0.445,-0.991 -0.992,-0.991 H 1.172 V 2.215 l 27.934,27.939 c 0.378,0.374 1.035,0.372 1.409,-0.002 L 58.453,2.214 V 24.373 H 40.031 c -0.547,0 -0.992,0.444 -0.992,0.991 0,0.547 0.445,0.992 0.992,0.992 h 19.415 c 0.264,0 0.513,-0.103 0.701,-0.29 0.187,-0.187 0.291,-0.436 0.291,-0.702 V -0.181 c 0,-0.401 -0.239,-0.759 -0.607,-0.914 -0.384,-0.154 -0.808,-0.069 -1.088,0.214 L 29.809,28.052 0.884,-0.883 C 0.699,-1.07 0.441,-1.172 0.181,-1.172"
             style="fill:#000000;fill-opacity:1;fill-rule:nonzero;stroke:none"
             id="path17666"
             inkscape:connector-curvature="0" />
        </g>
        <g
           id="g17668"
           transform="translate(389.4146,4071.304)"
           style="fill-opacity:1;fill:#000000">
          <path
             d="m 0,0 c -1.707,0 -3.095,-1.389 -3.095,-3.096 0,-0.547 -0.446,-0.991 -0.992,-0.991 -0.58,0 -1.052,-0.473 -1.052,-1.053 0,-0.579 0.472,-1.05 1.052,-1.05 h 11.24 c 1.143,0 2.073,0.929 2.073,2.073 0,1.143 -0.93,2.073 -2.073,2.073 -0.966,0 -1.824,-0.561 -2.135,-1.397 C 4.846,-3.896 4.383,-4.16 3.904,-4.07 3.438,-3.986 3.095,-3.576 3.095,-3.096 3.095,-1.389 1.707,0 0,0 m 7.153,-8.174 h -31.676 c -0.547,0 -0.993,0.445 -0.993,0.991 0,0.547 0.446,0.993 0.993,0.993 h 17.602 l -0.015,0.041 c -0.126,0.347 -0.187,0.678 -0.187,1.009 0,1.319 0.843,2.48 2.098,2.889 l 0.02,0.023 c 0.422,2.441 2.526,4.212 5.005,4.212 1.95,0 3.698,-1.09 4.562,-2.846 l 0.015,-0.033 0.03,0.022 c 0.144,0.104 0.314,0.208 0.517,0.312 l 0.015,0.008 v 16.872 c 0,0.547 0.445,0.993 0.992,0.993 0.547,0 0.992,-0.446 0.992,-0.993 L 7.153,-0.06 c 2.237,0 4.057,-1.82 4.057,-4.057 0,-1.082 -0.422,-2.101 -1.189,-2.868 C 9.254,-7.752 8.236,-8.174 7.153,-8.174"
             style="fill:#000000;fill-opacity:1;fill-rule:nonzero;stroke:none"
             id="path17670"
             inkscape:connector-curvature="0" />
        </g>
        <g
           id="g17672"
           transform="translate(370,4106.0459)"
           style="fill-opacity:1;fill:#000000">
          <path
             d="m 0,0 c -1.144,0 -2.074,-0.931 -2.074,-2.074 0,-1.144 0.93,-2.073 2.074,-2.073 1.143,0 2.073,0.929 2.073,2.073 C 2.073,-0.931 1.143,0 0,0 m 0,-6.131 c -2.237,0 -4.058,1.819 -4.058,4.057 0,2.237 1.821,4.057 4.058,4.057 2.237,0 4.057,-1.82 4.057,-4.057 0,-2.238 -1.82,-4.057 -4.057,-4.057"
             style="fill:#000000;fill-opacity:1;fill-rule:nonzero;stroke:none"
             id="path17674"
             inkscape:connector-curvature="0" />
        </g>
        <path
           d="m 382.232,4083.506 h 6.19 v 4.146 h -6.19 z m 0,-6.131 h 6.19 v 4.147 h -6.19 z m 9.226,-1.984 h -12.262 c -0.547,0 -0.992,0.445 -0.992,0.993 0,0.547 0.445,0.991 0.992,0.991 h 1.052 v 11.271 c 0,0.547 0.445,0.991 0.992,0.991 h 8.175 c 0.546,0 0.991,-0.444 0.991,-0.991 v -11.271 h 1.052 c 0.547,0 0.992,-0.444 0.992,-0.991 0,-0.548 -0.445,-0.993 -0.992,-0.993"
           style="fill:#000000;fill-opacity:1;fill-rule:nonzero;stroke:none"
           id="path17676"
           inkscape:connector-curvature="0" />
        <g
           id="g17678"
           transform="translate(365.8828,4069.2004)"
           style="fill-opacity:1;fill:#000000">
          <path
             d="M 0,0 H 8.234 V 8.234 H 7.183 c -0.547,0 -0.993,0.446 -0.993,0.993 0,0.546 0.446,0.992 0.993,0.992 h 1.051 v 8.233 H 0 Z m -5.08,-6.07 c -0.546,0 -0.991,0.444 -0.991,0.991 v 4.088 C -6.071,-0.444 -5.626,0 -5.08,0 h 3.096 v 19.445 c 0,0.547 0.445,0.992 0.992,0.992 H 9.226 c 0.547,0 0.992,-0.445 0.992,-0.992 V 0 h 3.095 c 0.547,0 0.992,-0.444 0.992,-0.991 0,-0.547 -0.445,-0.992 -0.992,-0.992 h -17.4 v -3.096 c 0,-0.547 -0.445,-0.991 -0.993,-0.991"
             style="fill:#000000;fill-opacity:1;fill-rule:nonzero;stroke:none"
             id="path17680"
             inkscape:connector-curvature="0" />
        </g>
        <path
           d="m 351.578,4083.506 h 6.19 v 4.146 h -6.19 z m 0,-6.131 h 6.19 v 4.147 h -6.19 z m 9.225,-1.984 h -12.261 c -0.547,0 -0.993,0.445 -0.993,0.993 0,0.547 0.446,0.991 0.993,0.991 h 1.051 v 11.271 c 0,0.547 0.446,0.991 0.992,0.991 h 8.175 c 0.547,0 0.992,-0.444 0.992,-0.991 v -11.271 h 1.051 c 0.548,0 0.993,-0.445 0.993,-0.992 0,-0.547 -0.445,-0.992 -0.993,-0.992"
           style="fill:#000000;fill-opacity:1;fill-rule:nonzero;stroke:none"
           id="path17682"
           inkscape:connector-curvature="0" />
      </g>
    </g>
  </g>
</svg>
