<?xml version="1.0" encoding="UTF-8" standalone="no"?>
<!-- Created with Inkscape (http://www.inkscape.org/) -->

<svg
   xmlns:dc="http://purl.org/dc/elements/1.1/"
   xmlns:cc="http://creativecommons.org/ns#"
   xmlns:rdf="http://www.w3.org/1999/02/22-rdf-syntax-ns#"
   xmlns:svg="http://www.w3.org/2000/svg"
   xmlns="http://www.w3.org/2000/svg"
   xmlns:sodipodi="http://sodipodi.sourceforge.net/DTD/sodipodi-0.dtd"
   xmlns:inkscape="http://www.inkscape.org/namespaces/inkscape"
   width="5.6444445mm"
   height="7.0555553mm"
   viewBox="0 0 5.6444445 7.0555553"
   version="1.1"
   id="svg3168"
   inkscape:version="0.92.2 (30a58d1, 2017-08-07)"
   sodipodi:docname="icon-maps.svg">
  <defs
     id="defs3162">
    <clipPath
       clipPathUnits="userSpaceOnUse"
       id="clipPath2517">
      <path
         d="M 0,7464 H 1440 V 0 H 0 Z"
         id="path2515"
         inkscape:connector-curvature="0" />
    </clipPath>
  </defs>
  <sodipodi:namedview
     id="base"
     pagecolor="#ffffff"
     bordercolor="#666666"
     borderopacity="1.0"
     inkscape:pageopacity="0.0"
     inkscape:pageshadow="2"
     inkscape:zoom="5.6"
     inkscape:cx="39.140378"
     inkscape:cy="23.605882"
     inkscape:document-units="mm"
     inkscape:current-layer="layer1"
     showgrid="false"
     inkscape:window-width="1366"
     inkscape:window-height="660"
     inkscape:window-x="0"
     inkscape:window-y="27"
     inkscape:window-maximized="1" />
  <metadata
     id="metadata3165">
    <rdf:RDF>
      <cc:Work
         rdf:about="">
        <dc:format>image/svg+xml</dc:format>
        <dc:type
           rdf:resource="http://purl.org/dc/dcmitype/StillImage" />
        <dc:title></dc:title>
      </cc:Work>
    </rdf:RDF>
  </metadata>
  <g
     inkscape:label="Camada 1"
     inkscape:groupmode="layer"
     id="layer1"
     transform="translate(-47.826585,-158.15679)">
    <g
       transform="matrix(0.35277777,0,0,-0.35277777,-336.70129,2762.715)"
       id="g2511"
       style="fill:#000000;fill-opacity:1">
      <g
         id="g2513"
         clip-path="url(#clipPath2517)"
         style="fill:#000000;fill-opacity:1">
        <g
           id="g2519"
           transform="translate(1104.7373,7373.6748)"
           style="fill:#000000;fill-opacity:1">
          <path
             d="m 0,0 c 0,-0.008 -0.004,-0.017 -0.004,-0.025 -0.005,-0.021 -0.017,-0.084 -0.038,-0.18 v -0.008 c -0.104,-0.47 -0.259,-0.927 -0.464,-1.367 -0.005,-0.004 -0.005,-0.013 -0.009,-0.017 -0.782,-1.858 -2.496,-4.692 -6.226,-7.782 -3.731,3.09 -5.446,5.924 -6.228,7.782 -0.004,0.004 -0.004,0.013 -0.008,0.017 -0.201,0.435 -0.355,0.897 -0.463,1.367 v 0.008 c -0.026,0.096 -0.035,0.159 -0.039,0.18 0,0.008 -0.003,0.017 -0.003,0.029 -0.084,0.432 -0.126,0.869 -0.126,1.308 0,3.795 3.082,6.885 6.867,6.885 3.784,0 6.866,-3.09 6.866,-6.885 C 0.125,0.868 0.083,0.428 0,0 m -6.741,9.325 c -4.408,0 -7.996,-3.597 -7.996,-8.016 0,-0.504 0.046,-1.011 0.142,-1.506 0.004,-0.029 0.021,-0.117 0.054,-0.268 0.121,-0.541 0.302,-1.074 0.535,-1.581 0.862,-2.034 2.756,-5.157 6.913,-8.503 0.105,-0.084 0.231,-0.126 0.356,-0.126 0.126,0 0.251,0.042 0.355,0.126 4.153,3.346 6.052,6.469 6.913,8.503 0.234,0.507 0.414,1.036 0.535,1.581 0.034,0.151 0.05,0.239 0.054,0.268 0.093,0.495 0.143,1.002 0.143,1.506 -0.008,4.419 -3.597,8.016 -8.004,8.016"
             style="fill:#000000;fill-opacity:1;fill-rule:nonzero;stroke:none"
             id="path2521"
             inkscape:connector-curvature="0" />
        </g>
        <g
           id="g2523"
           transform="translate(1097.9961,7370.937)"
           style="fill:#000000;fill-opacity:1">
          <path
             d="m 0,0 c -2.179,0 -3.948,1.778 -3.948,3.958 0,2.181 1.773,3.958 3.948,3.958 2.175,0 3.947,-1.777 3.947,-3.958 C 3.947,1.778 2.179,0 0,0 m 0,9.048 c -2.798,0 -5.077,-2.285 -5.077,-5.09 0,-2.805 2.279,-5.09 5.077,-5.09 2.798,0 5.076,2.285 5.076,5.09 0,2.805 -2.278,5.09 -5.076,5.09"
             style="fill:#000000;fill-opacity:1;fill-rule:nonzero;stroke:none"
             id="path2525"
             inkscape:connector-curvature="0" />
        </g>
      </g>
    </g>
  </g>
</svg>
