<?xml version="1.0" standalone="no"?>
<!DOCTYPE svg PUBLIC "-//W3C//DTD SVG 1.1//EN" "http://www.w3.org/Graphics/SVG/1.1/DTD/svg11.dtd" >
<svg xmlns="http://www.w3.org/2000/svg">
<metadata>Generated by IcoMoon</metadata>
<defs>
<font id="icomoon" horiz-adv-x="1024">
<font-face units-per-em="1024" ascent="960" descent="-64" />
<missing-glyph horiz-adv-x="1024" />
<glyph unicode="&#x20;" horiz-adv-x="512" d="" />
<glyph unicode="&#xe900;" glyph-name="svg" horiz-adv-x="1434" d="M512 960h409.6c282.77 0 512-229.23 512-512s-229.23-512-512-512h-409.6c-282.77 0-512 229.23-512 512s229.23 512 512 512z" />
<glyph unicode="&#xe901;" glyph-name="boleto" d="M925.672 244.389c0-16.749-13.76-30.312-30.771-30.312-17.044 0-30.804 13.563-30.804 30.312v363.773c0 16.749 13.76 30.312 30.804 30.312 17.011 0 30.771-13.563 30.771-30.312zM802.521 365.636c0-16.749-13.76-30.279-30.771-30.279-17.044 0-30.804 13.53-30.804 30.279v242.526c0 16.749 13.76 30.312 30.804 30.312 17.011 0 30.771-13.563 30.771-30.312zM771.75 214.077c-17.011 0-30.804 13.563-30.804 30.312s13.793 30.312 30.804 30.312c16.978 0 30.771-13.563 30.771-30.312s-13.793-30.312-30.771-30.312zM679.369 365.636c0-16.749-13.76-30.279-30.804-30.279-17.011 0-30.771 13.53-30.771 30.279v242.526c0 16.749 13.76 30.312 30.771 30.312 17.044 0 30.804-13.563 30.804-30.312zM648.565 214.077c-16.978 0-30.771 13.563-30.771 30.312s13.793 30.312 30.771 30.312c17.011 0 30.804-13.563 30.804-30.312s-13.793-30.312-30.804-30.312zM556.218 244.389c0-16.749-13.76-30.312-30.804-30.312-17.011 0-30.771 13.563-30.771 30.312v363.773c0 16.749 13.76 30.312 30.771 30.312 17.044 0 30.804-13.563 30.804-30.312zM433.066 365.636c0-16.749-13.76-30.279-30.804-30.279-17.011 0-30.771 13.53-30.771 30.279v242.526c0 16.749 13.76 30.312 30.771 30.312 17.044 0 30.804-13.563 30.804-30.312zM402.262 214.077c-16.978 0-30.771 13.563-30.771 30.312s13.793 30.312 30.771 30.312c17.011 0 30.804-13.563 30.804-30.312s-13.793-30.312-30.804-30.312zM309.915 365.636c0-16.749-13.76-30.279-30.771-30.279-17.044 0-30.804 13.53-30.804 30.279v242.526c0 16.749 13.76 30.312 30.804 30.312 17.011 0 30.771-13.563 30.771-30.312zM279.143 214.077c-17.011 0-30.804 13.563-30.804 30.312s13.793 30.312 30.804 30.312c16.978 0 30.771-13.563 30.771-30.312s-13.793-30.312-30.771-30.312zM186.763 244.389c0-16.749-13.76-30.312-30.771-30.312-17.044 0-30.804 13.563-30.804 30.312v363.773c0 16.749 13.76 30.312 30.804 30.312 17.011 0 30.771-13.563 30.771-30.312zM958.513 820.377h-866.166c-50.935 0-92.347-40.821-92.347-90.935v-606.3c0-50.147 41.412-90.935 92.347-90.935h866.166c50.935 0 92.38 40.788 92.38 90.935v606.3c0 50.114-41.445 90.935-92.38 90.935z" />
<glyph unicode="&#xe902;" glyph-name="carta" d="M1023.983 547.994c0 4.062-1.212 8.175-3.789 11.725-1.28 1.775-2.799 3.26-4.471 4.471l-176.538 127.744c-1.024 0.751-2.082 1.348-3.191 1.877v190.174c0 41.916-34.099 76.015-75.998 76.015h-495.991c-41.916 0-75.998-34.099-75.998-76.015v-190.174c-1.109-0.512-2.167-1.126-3.191-1.877l-176.538-127.744c-1.673-1.212-3.209-2.697-4.489-4.471-2.56-3.55-3.772-7.663-3.772-11.725h-0.017v-592.009c0-11.042 8.943-19.985 20.002-19.985h983.996c0.307 0 0.546 0.017 0.802 0.034 10.667 0.427 19.2 9.182 19.2 19.951v592.009zM629.026 251.99l354.97 256.853v-513.69zM40.004 508.843l354.953-256.853-354.953-256.836zM969.882 547.994l-133.888-96.87v193.741zM264.004 919.996h495.991c19.849 0 36.011-16.145 36.011-36.011v-32h-421.001c-11.059 0-20.002-8.943-20.002-19.985 0-11.059 8.943-20.002 20.002-20.002h421.001v-389.82l-201.097-145.493-71.185 51.507c-6.997 5.069-16.452 5.069-23.45 0l-71.202-51.507-201.079 145.493v461.807c0 19.866 16.162 36.011 36.011 36.011zM188.006 644.864v-193.741l-133.888 96.87zM81.766-24.013l430.234 311.33 170.411-123.324h-92.757c-11.059 0-20.002-8.943-20.002-20.002 0-11.042 8.943-20.002 20.002-20.002h147.849c0.068 0 0.137 0.017 0.188 0.017l55.296-40.004h-293.649c-11.042 0-20.002-8.96-20.002-20.002 0-11.059 8.96-20.002 20.002-20.002h348.928l93.986-68.011zM414 83.994c-5.257 0-10.411-2.133-14.148-5.871-3.703-3.721-5.854-8.858-5.854-14.131 0-5.257 2.15-10.411 5.854-14.131 3.738-3.738 8.892-5.871 14.148-5.871s10.411 2.133 14.148 5.871c3.703 3.721 5.854 8.875 5.854 14.131 0 5.274-2.15 10.411-5.854 14.131-3.738 3.738-8.892 5.871-14.148 5.871zM293.024 811.995h0.171c11.059 0 19.917 8.943 19.917 20.002 0 11.042-9.045 20.002-20.087 20.002s-20.002-8.96-20.002-20.002c0-11.059 8.96-20.002 20.002-20.002zM511.951 467.878h97.058c11.042 0 19.985 8.943 19.985 20.002 0 11.042-8.943 20.002-19.985 20.002h-97.058c-61.747 0-111.991 50.227-111.991 111.991v2.014c0 61.764 50.244 111.991 111.991 111.991s111.991-50.227 111.991-111.991v-32.051c0-9.899-8.055-17.954-17.971-17.954-9.899 0-17.971 8.055-17.971 17.954v36.215c0 45.21-36.779 81.988-82.005 81.988-47.411 0-85.999-38.571-85.999-85.999 0-47.411 38.588-85.999 85.999-85.999h24.883c11.042 0 20.002 8.96 20.002 20.002s-8.96 20.002-20.002 20.002h-24.883c-25.361 0-45.995 20.634-45.995 45.995 0 25.378 20.634 46.012 45.995 46.012 23.177 0 42.001-18.859 42.001-42.001v-36.215c0-31.966 26.010-57.958 57.975-57.958s57.958 25.993 57.958 57.958v32.051c0 83.814-68.181 151.996-151.979 151.996-83.814 0-151.996-68.181-151.996-151.996v-2.014c0-83.814 68.181-151.996 151.996-151.996zM379.959 387.994h263.97c11.059 0 20.002 8.943 20.002 20.002 0 11.042-8.943 20.002-20.002 20.002h-263.97c-11.042 0-20.002-8.96-20.002-20.002 0-11.059 8.96-20.002 20.002-20.002z" />
<glyph unicode="&#xe903;" glyph-name="facebook" d="M412.805 463.812v55.534h32.99c8.824 0 15.992 7.168 15.992 16.009v56.661c0 10.377 1.674 36.762 17.101 57.737 14.763 20.071 38.605 30.242 70.759 30.242l60.348-0.242v-53.060h-39.373c-18.842 0-37.854-12.339-37.854-39.868v-51.473c0-8.824 7.151-15.991 15.991-15.991h60.792l-5.735-55.535h-55.057c-8.841 0-15.991-7.168-15.991-15.992v-231.833h-70.98v231.833c0 8.824-7.168 15.992-15.992 15.992zM445.795 184.003h102.98c8.824 0 15.992 7.151 15.992 15.992v231.816h53.504c8.209 0 15.070 6.195 15.923 14.353l9.011 87.552c0.484 4.489-1.006 8.994-4.030 12.356-3.038 3.382-7.355 5.291-11.895 5.291h-62.515v35.447c0 7.338 2.322 7.868 5.854 7.868h55.364c8.841 0 16.009 7.168 16.009 16.008v85.009c0 8.806-7.117 15.94-15.941 15.974l-76.356 0.339c-53.504 0-82.056-23.535-96.597-43.281-20.275-27.562-23.313-59.887-23.313-76.68v-40.67h-32.973c-8.841 0-16.008-7.168-16.008-16.008v-87.535c0-8.841 7.168-16.008 16.008-16.008h32.973v-231.816c0-8.841 7.151-15.992 16.008-15.992zM851.421 108.578c-90.658-90.658-211.2-140.578-339.422-140.578-128.205 0-248.747 49.92-339.388 140.578-90.675 90.658-140.612 211.2-140.612 339.422 0 128.188 49.937 248.73 140.612 339.388 90.658 90.675 211.2 140.612 339.388 140.612 128.222 0 248.764-49.937 339.422-140.612 90.658-90.641 140.579-211.183 140.579-339.388 0-128.239-49.92-248.763-140.579-339.422zM874.035 810.035c-96.7 96.7-225.28 149.965-362.035 149.965-136.738 0-265.318-53.265-362.035-149.965-96.7-96.717-149.965-225.297-149.965-362.035 0-136.789 53.265-265.352 149.965-362.052s225.297-149.948 362.035-149.948c136.772 0 265.336 53.248 362.035 149.948s149.964 225.263 149.964 362.052c0 136.738-53.265 265.336-149.964 362.035z" />
<glyph unicode="&#xe904;" glyph-name="flexas" horiz-adv-x="1025" d="M1013.134 807.568l-149.312 141.454c-15.512 14.638-40.679 14.638-56.345 0-15.512-14.587-15.512-38.368 0-53.212l81.718-77.199h-159.687c-188.451 0-341.82-144.792-341.82-322.765v-95.586c0-136.677-117.724-247.672-262.156-247.672h-85.725c-21.881 0-39.806-16.95-39.806-37.598s17.669-37.546 39.806-37.546h85.725c188.451 0 341.718 144.792 341.718 322.816v95.586c0 136.677 117.775 247.672 262.259 247.672h159.687l-81.718-77.199c-15.512-14.638-15.512-38.419 0-53.212 7.704-7.345 17.874-11.043 28.044-11.043s20.288 3.698 28.044 11.043l149.569 141.248c15.46 14.638 15.46 38.368 0 53.212zM370.496 720.765c-64.769 63.228-151.778 97.846-245.001 97.846h-85.673c-21.881 0-39.806-16.898-39.806-37.546s17.669-37.546 39.806-37.546h85.673c71.343 0 138.32-26.709 188.040-75.144 7.704-7.499 18.080-11.454 28.455-11.454 9.964 0 19.877 3.544 27.582 10.632 15.717 14.382 16.179 38.214 0.925 53.212zM1013.386 141.504l-149.569 141.248c-15.512 14.638-40.679 14.638-56.345 0-15.512-14.587-15.512-38.368 0-53.212l81.718-77.199h-159.687c-71.6 0-138.32 26.709-188.040 75.144-15.203 14.793-40.423 15.203-56.294 0.822-15.717-14.382-16.179-38.163-0.925-53.212 64.974-63.022 151.983-97.846 245.258-97.846h159.687l-81.718-77.199c-15.512-14.638-15.512-38.214 0.205-53.007 7.756-7.294 17.926-11.043 28.096-11.043 10.119 0 20.288 3.749 28.044 11.043l149.569 141.248c15.46 14.638 15.46 38.368 0 53.212z" />
<glyph unicode="&#xe905;" glyph-name="footer" d="M985.256 322.023c-0.475 0-0.863-0.395-0.863-0.88v-0.621c0-0.484 0.388-0.879 0.863-0.879s0.863 0.395 0.863 0.879v0.621c0 0.485-0.388 0.88-0.863 0.88zM1008.46 332.537v0.621c0 0.485-0.389 0.879-0.864 0.879s-0.863-0.394-0.863-0.879v-0.621c0-0.485 0.388-0.88 0.863-0.88s0.864 0.395 0.864 0.88zM901.879 300.165l3.896 2.325 3.895-2.325v-17.208h-7.791zM911.397 300.167l3.894 2.322 3.896-2.322v-17.21h-7.79zM920.913 300.165l3.895 2.324 3.895-2.322-0.001-17.21h-7.789zM981.132 300.167l3.896 2.322 3.895-2.322v-17.21h-7.791zM990.649 300.167l3.895 2.322 3.896-2.322v-17.21h-7.791zM996.383 313.203c-1.347 0.523-2.54 1.409-3.451 2.56-0.331 0.415-1.014 0.415-1.344 0-1.563-1.974-3.885-3.106-6.372-3.106-4.513 0-8.184 3.74-8.184 8.338 0 3.66 2.3 6.857 5.725 7.954 0.233 0.075 0.423 0.246 0.526 0.473 0.1 0.223 0.104 0.484 0.009 0.713-0.433 1.030-0.653 2.129-0.653 3.266 0 4.458 3.42 8.116 7.786 8.329 0.247 0.011 0.477 0.131 0.631 0.326 0.156 0.196 0.221 0.45 0.179 0.698-0.076 0.452-0.116 0.927-0.116 1.409 0 4.598 3.67 8.338 8.183 8.338s8.186-3.74 8.186-8.338c0-0.456-0.039-0.929-0.116-1.403-0.042-0.255 0.023-0.508 0.177-0.703 0.155-0.196 0.384-0.316 0.628-0.327 4.369-0.213 7.791-3.872 7.791-8.329 0-1.135-0.221-2.235-0.654-3.269-0.095-0.227-0.091-0.486 0.010-0.71 0.102-0.228 0.293-0.4 0.524-0.473 3.425-1.096 5.727-4.295 5.727-7.954 0-4.598-3.672-8.338-8.185-8.338-2.487 0-4.81 1.132-6.373 3.107-0.328 0.413-1.013 0.414-1.343-0.001-0.91-1.15-2.105-2.036-3.45-2.56l-2.059-0.802v11.077c0 0.484-0.388 0.88-0.863 0.88s-0.862-0.396-0.862-0.88v-11.075zM1000.165 300.167l3.896 2.322 3.896-2.322v-17.21h-7.792zM1009.682 300.165l3.896 2.324 3.895-2.322v-17.21h-7.791zM1023.052 281.199c0.476 0 0.864 0.395 0.864 0.879s-0.388 0.88-0.864 0.88h-3.854v17.714c0 0.311-0.163 0.603-0.427 0.759l-4.757 2.836c-0.269 0.162-0.604 0.16-0.872 0l-4.323-2.577-4.323 2.577c-0.269 0.16-0.602 0.16-0.871 0l-3.46-2.059v8.653l1.203 0.258c1.464 0.316 2.861 0.981 4.040 1.924l0.936 0.749 0.937-0.749c1.753-1.402 3.867-2.142 6.109-2.142 5.464 0 9.91 4.529 9.91 10.096 0 3.656-1.933 7.030-5.046 8.802l-0.96 0.548 0.212 1.099c0.124 0.635 0.186 1.294 0.186 1.956 0 4.582-3.026 8.596-7.36 9.761l-1.082 0.292-0.046 1.138c-0.224 5.421-4.572 9.667-9.902 9.667s-9.678-4.247-9.902-9.667l-0.046-1.138-1.081-0.292c-4.334-1.166-7.36-5.18-7.36-9.761 0-0.659 0.062-1.318 0.185-1.958l0.211-1.098-0.959-0.547c-3.111-1.773-5.044-5.147-5.044-8.802 0-5.567 4.446-10.096 9.91-10.096 2.243 0 4.355 0.74 6.106 2.142l0.937 0.749 0.936-0.749c1.182-0.943 2.579-1.608 4.043-1.924l1.203-0.258v-8.653l-3.459 2.059c-0.27 0.16-0.603 0.16-0.873 0l-4.322-2.577-4.323 2.577c-0.269 0.16-0.602 0.16-0.871 0l-4.759-2.837c-0.261-0.156-0.426-0.447-0.426-0.758v-17.714h-14.134v38.103c0 0.484-0.386 0.879-0.862 0.879h-35.977c-0.476 0-0.863-0.395-0.863-0.879v-9.094c0-0.484 0.387-0.878 0.863-0.878s0.863 0.394 0.863 0.878v8.216h34.252v-37.226h-33.121v17.714c0 0.311-0.164 0.603-0.428 0.759l-4.757 2.836c-0.27 0.16-0.603 0.16-0.872 0l-4.322-2.577-4.322 2.577c-0.269 0.162-0.603 0.16-0.872 0l-4.323-2.577-4.323 2.577c-0.268 0.16-0.602 0.16-0.872 0l-4.758-2.837c-0.262-0.155-0.426-0.447-0.426-0.758v-17.714h-3.855c-0.475 0-0.862-0.395-0.862-0.88s0.387-0.879 0.862-0.879zM956.119 335.269h-19.389v13.182h19.389zM935.866 350.21c-0.476 0-0.864-0.394-0.864-0.879v-14.941c0-0.484 0.388-0.88 0.864-0.88h21.114c0.476 0 0.864 0.396 0.864 0.88v14.941c0 0.485-0.388 0.879-0.864 0.879zM946.423 387.112c-0.475 0-0.863-0.394-0.863-0.88v-23.338h-2.846l-15.808 14.057c-0.174 0.155-0.398 0.231-0.625 0.214-0.23-0.015-0.44-0.122-0.592-0.299s-0.228-0.403-0.211-0.637c0.016-0.233 0.119-0.447 0.294-0.601l14.318-12.734h-24.855c-0.476 0-0.862-0.394-0.862-0.877 0-0.486 0.386-0.881 0.862-0.881h62.377c0.477 0 0.864 0.395 0.864 0.881 0 0.483-0.387 0.877-0.864 0.877h-24.853l14.318 12.733c0.357 0.319 0.395 0.875 0.082 1.238-0.151 0.179-0.361 0.286-0.592 0.3-0.231 0.018-0.452-0.059-0.625-0.214l-15.81-14.057h-2.844v23.338c0 0.486-0.389 0.88-0.864 0.88zM903.482 373.178v-61.362c0-0.484 0.387-0.879 0.862-0.879s0.864 0.395 0.864 0.879v60.884l41.215 27.099 41.216-27.099v-13.159c0-0.485 0.387-0.88 0.863-0.88s0.864 0.395 0.864 0.88l-0.002 13.637c0 0.3-0.146 0.577-0.394 0.739l-42.079 27.666c-0.142 0.093-0.305 0.139-0.468 0.139s-0.325-0.046-0.466-0.139l-42.081-27.666c-0.246-0.162-0.394-0.438-0.394-0.739zM847.635 290.514v-1.238l-0.248 0.025c-1.975 0.185-3.827 0.964-5.36 2.255l-0.189 0.16 0.86 0.874c0.127 0.129 0.196 0.298 0.196 0.48s-0.070 0.351-0.196 0.48c-0.261 0.263-0.686 0.263-0.946 0l-0.861-0.874-0.158 0.193c-1.272 1.554-2.041 3.435-2.224 5.436l-0.023 0.252h1.22c0.37 0 0.669 0.304 0.669 0.679s-0.299 0.678-0.669 0.678h-1.22l0.023 0.251c0.184 2.002 0.952 3.881 2.224 5.436l0.158 0.192 0.861-0.871c0.253-0.257 0.692-0.257 0.946 0 0.127 0.128 0.196 0.296 0.196 0.478s-0.070 0.352-0.196 0.481l-0.862 0.872 0.191 0.162c1.531 1.289 3.384 2.068 5.359 2.256l0.248 0.023v-1.237c0-0.374 0.3-0.679 0.669-0.679s0.668 0.305 0.668 0.679v1.237l0.248-0.023c1.976-0.187 3.828-0.967 5.359-2.256l0.191-0.162-0.86-0.872c-0.127-0.129-0.196-0.298-0.196-0.48s0.070-0.351 0.196-0.479c0.254-0.258 0.695-0.258 0.945 0l0.859 0.872 0.161-0.193c1.269-1.552 2.039-3.432 2.222-5.436l0.024-0.251h-1.221c-0.368 0-0.668-0.304-0.668-0.678s0.299-0.679 0.668-0.679h1.222l-0.024-0.252c-0.185-2.004-0.954-3.884-2.223-5.436l-0.159-0.193-0.861 0.874c-0.261 0.262-0.685 0.264-0.945 0-0.262-0.265-0.262-0.695 0-0.96l0.861-0.874-0.192-0.16c-1.532-1.291-3.385-2.070-5.359-2.255l-0.248-0.025v1.238c0 0.375-0.299 0.678-0.668 0.678s-0.668-0.303-0.668-0.678zM856.13 291.15c0.036 0.031 0.057 0.048 0.074 0.067 0.022 0.022 0.040 0.042 0.055 0.063 2.083 2.154 3.222 4.974 3.222 7.958s-1.139 5.802-3.206 7.94l-0.018 0.019c-0.015 0.022-0.032 0.041-0.050 0.059s-0.039 0.037-0.059 0.053c-2.122 2.113-4.902 3.268-7.844 3.268s-5.722-1.154-7.828-3.253c-0.037-0.030-0.058-0.049-0.077-0.068s-0.034-0.037-0.050-0.059c-2.085-2.155-3.224-4.974-3.224-7.958s1.139-5.805 3.207-7.941c0.032-0.040 0.049-0.060 0.067-0.078 0.021-0.022 0.040-0.038 0.059-0.054 2.123-2.112 4.903-3.268 7.845-3.268s5.722 1.155 7.827 3.252zM850.477 304.303c-0.688 0.304-1.419 0.458-2.174 0.458-3.002 0-5.445-2.479-5.445-5.524s2.443-5.525 5.445-5.525c3.003 0 5.446 2.479 5.446 5.525 0 0.765-0.152 1.506-0.452 2.205-0.071 0.166-0.202 0.294-0.368 0.36s-0.348 0.063-0.512-0.010c-0.339-0.149-0.493-0.55-0.346-0.893 0.225-0.525 0.34-1.085 0.34-1.662 0-2.298-1.843-4.167-4.108-4.167s-4.107 1.869-4.107 4.167c0 2.298 1.843 4.166 4.107 4.166 0.57 0 1.122-0.116 1.638-0.346 0.344-0.154 0.736 0.010 0.882 0.351 0.072 0.167 0.075 0.35 0.009 0.519-0.064 0.17-0.19 0.303-0.354 0.374zM848.303 299.177c-0.032 0-0.060 0.026-0.060 0.061 0 0.033 0.027 0.060 0.060 0.060s0.061-0.027 0.061-0.060c0-0.035-0.027-0.061-0.061-0.061zM848.303 299.406c-0.092 0-0.166-0.077-0.166-0.169 0-0.094 0.074-0.17 0.166-0.17s0.168 0.076 0.168 0.17c0 0.092-0.076 0.169-0.168 0.169zM848.303 298.947c-0.157 0-0.286 0.131-0.286 0.291s0.129 0.29 0.286 0.29c0.158 0 0.287-0.131 0.287-0.29s-0.129-0.291-0.287-0.291zM848.303 300.884c-0.895 0-1.624-0.739-1.624-1.647s0.728-1.648 1.624-1.648c0.896 0 1.624 0.739 1.624 1.648s-0.727 1.647-1.624 1.647zM883.651 294.101c-1.95 0-3.536-1.61-3.536-3.586 0-1.978 1.586-3.586 3.536-3.586s3.535 1.608 3.535 3.586c0 0.375-0.3 0.678-0.669 0.678s-0.669-0.303-0.669-0.678c0-1.229-0.986-2.229-2.196-2.229s-2.197 1-2.197 2.229c0 1.229 0.986 2.229 2.197 2.229 0.368 0 0.668 0.304 0.668 0.678s-0.3 0.678-0.668 0.678zM891.578 294.391c0-0.536-0.336-1.013-0.834-1.19l-0.203-0.071-0.081 0.201c-1.138 2.821-3.811 4.645-6.809 4.645-3.024 0-5.706-1.845-6.832-4.701l-0.058-0.144h-8.395c-0.159 0-0.287 0.131-0.287 0.291v5.815c0 0.341-0.009 0.68-0.027 1.018l-0.012 0.241h22.297c0.684 0 1.241-0.564 1.241-1.259zM883.651 284.41c-3.32 0-6.019 2.739-6.019 6.105s2.7 6.105 6.019 6.105c3.318 0 6.018-2.739 6.018-6.105s-2.7-6.105-6.018-6.105zM889.669 307.28v-1.55h-1.243c-0.154 0-0.286 0.133-0.286 0.291v0.969c0 0.158 0.132 0.291 0.286 0.291zM867.883 302.051c-0.682 4.906-3.137 9.373-6.911 12.576l-0.478 0.406h13.552l10.878-1.26c2.645-0.335 4.637-2.393 4.74-4.895l0.010-0.24h-1.248c-0.895 0-1.624-0.739-1.624-1.648v-0.969c0-0.909 0.728-1.648 1.624-1.648h1.243v-2.519h-21.758zM866.74 295.069h-3.018l0.069 0.285c0.309 1.267 0.466 2.575 0.466 3.883 0 8.922-7.158 16.182-15.955 16.182-3.823 0-7.523-1.399-10.42-3.938l-0.374-0.329v6.787h10.794c10.166 0 18.437-8.391 18.437-18.702zM848.303 284.41c-8.059 0-14.616 6.651-14.616 14.828 0 8.175 6.556 14.826 14.616 14.826s14.618-6.651 14.618-14.826c0-8.177-6.558-14.828-14.618-14.828zM855.277 333.445v-15.433l-0.303 0.111c-2.14 0.78-4.385 1.175-6.671 1.175h-2.228l1.494 11.373c0.208 1.581 1.551 2.774 3.126 2.774zM843.113 337.321h25.559l-0.019-0.247c-0.004-0.063 0-0.129 0.015-0.193l0.466-2.078h-18.44c-2.242 0-4.155-1.699-4.452-3.953l-1.468-11.172c-0.008-0.046-0.009-0.089-0.006-0.134l0.019-0.246h-5.416zM869.478 333.267l3.781-16.877h-14.448c-0.045 0-0.088-0.005-0.13-0.013l-0.086-0.017-0.075 0.046c-0.565 0.347-1.164 0.673-1.78 0.971l-0.142 0.068 0.016 0.204v15.796h12.822zM892.916 299.238c0 1.123-0.705 2.118-1.756 2.478l-0.154 0.053v6.915c0 3.243-2.547 6.012-5.924 6.437l-6.514 0.756-0.036 0.159-3.737 16.675c-0.167 0.752 0.054 1.525 0.59 2.070l1.899 1.925c0.127 0.129 0.196 0.299 0.196 0.48s-0.070 0.351-0.196 0.48c-0.26 0.266-0.687 0.264-0.945 0l-1.899-1.926c-0.865-0.877-1.218-2.122-0.947-3.33l3.668-16.369-2.516 0.291-0.035 0.159-4.668 20.831h0.284c0.42 0 0.72 0.304 0.72 0.679s-0.299 0.678-0.668 0.678h-28.659c-0.369 0-0.669-0.304-0.669-0.678 0-0.334 0.236-0.615 0.56-0.668l0.234-0.039-3.645-17.565c-0.013-0.059-0.017-0.122-0.013-0.186l0.017-0.245h-4.127c-0.369 0-0.668-0.304-0.668-0.678s0.299-0.679 0.668-0.679h2.198l0.009-8.195-0.060-0.072c-2.433-2.916-3.771-6.623-3.771-10.436 0-8.924 7.158-16.185 15.955-16.185 6.613 0 12.62 4.229 14.946 10.521l0.065 0.174 0.181-0.027c0.031-0.004 0.062-0.007 0.094-0.007h3.152v-0.291c0-0.909 0.729-1.648 1.626-1.648h8.030l-0.033-0.261c-0.045-0.342-0.068-0.678-0.068-0.998 0-4.115 3.299-7.462 7.356-7.462s7.355 3.347 7.355 7.462c0 0.378-0.027 0.754-0.082 1.116l-0.029 0.198 0.187 0.057c1.082 0.332 1.835 1.362 1.835 2.505zM706.505 385.115v11.451c0 0.489-0.395 0.886-0.88 0.886s-0.879-0.398-0.879-0.886v-11.451c0-0.489 0.394-0.886 0.879-0.886s0.88 0.398 0.88 0.886zM706.505 304.986v22.893c0 0.491-0.395 0.891-0.88 0.891s-0.879-0.401-0.879-0.891v-22.893c0-0.491 0.394-0.89 0.879-0.89s0.88 0.4 0.88 0.89zM729.167 453.803v11.447c0 0.491-0.394 0.889-0.879 0.889-0.487 0-0.882-0.399-0.882-0.889v-11.447c0-0.491 0.395-0.89 0.882-0.89 0.485 0 0.879 0.4 0.879 0.89zM706.505 419.459v11.447c0 0.491-0.395 0.89-0.88 0.89s-0.879-0.4-0.879-0.89v-11.447c0-0.491 0.394-0.89 0.879-0.89s0.88 0.4 0.88 0.89zM706.505 350.772v11.45c0 0.489-0.395 0.886-0.88 0.886s-0.879-0.398-0.879-0.886v-11.45c0-0.489 0.394-0.886 0.879-0.886s0.88 0.398 0.88 0.886zM729.167 419.459v11.447c0 0.491-0.394 0.89-0.879 0.89-0.487 0-0.882-0.4-0.882-0.89v-11.447c0-0.491 0.395-0.89 0.882-0.89 0.485 0 0.879 0.4 0.879 0.89zM683.841 453.803v11.447c0 0.491-0.394 0.889-0.879 0.889s-0.882-0.399-0.882-0.889v-11.447c0-0.491 0.396-0.89 0.882-0.89s0.879 0.4 0.879 0.89zM706.505 453.803v11.447c0 0.491-0.395 0.889-0.88 0.889s-0.879-0.399-0.879-0.889v-11.447c0-0.491 0.394-0.89 0.879-0.89s0.88 0.4 0.88 0.89zM729.167 522.486v11.451c0 0.489-0.394 0.886-0.879 0.886-0.487 0-0.882-0.398-0.882-0.886v-11.451c0-0.489 0.395-0.886 0.882-0.886 0.485 0 0.879 0.398 0.879 0.886zM683.841 419.459v11.447c0 0.491-0.394 0.89-0.879 0.89s-0.882-0.4-0.882-0.89v-11.447c0-0.491 0.396-0.89 0.882-0.89s0.879 0.4 0.879 0.89zM751.83 522.486v11.451c0 0.489-0.395 0.886-0.88 0.886s-0.879-0.398-0.879-0.886v-11.451c0-0.489 0.394-0.886 0.879-0.886s0.88 0.398 0.88 0.886zM683.841 385.115v11.451c0 0.489-0.394 0.886-0.879 0.886s-0.882-0.398-0.882-0.886v-11.451c0-0.489 0.396-0.886 0.882-0.886s0.879 0.398 0.879 0.886zM773.614 349.886c0.484 0 0.879 0.398 0.879 0.886v11.45c0 0.489-0.395 0.887-0.879 0.887-0.486 0-0.881-0.399-0.881-0.887v-11.45c0-0.489 0.395-0.886 0.881-0.886zM773.614 304.095c0.484 0 0.879 0.4 0.879 0.89v22.894c0 0.491-0.395 0.89-0.879 0.89-0.486 0-0.881-0.4-0.881-0.89v-22.894c0-0.491 0.395-0.89 0.881-0.89zM797.158 385.115v11.451c0 0.489-0.396 0.886-0.882 0.886s-0.879-0.398-0.879-0.886v-11.451c0-0.489 0.394-0.886 0.879-0.886s0.882 0.398 0.882 0.886zM818.94 384.229c0.484 0 0.879 0.398 0.879 0.886v62.963c0 0.377-0.228 0.707-0.578 0.84l-44.747 16.946v113.862c0 0.489-0.395 0.887-0.879 0.887-0.486 0-0.881-0.399-0.881-0.887v-10.753l-67.323-17.004c-0.393-0.1-0.664-0.453-0.664-0.861v-28.622c0-0.489 0.394-0.887 0.878-0.887 0.486 0 0.881 0.399 0.881 0.887v27.923l66.228 16.731v-101.891c0-0.37 0.236-0.71 0.584-0.843l44.742-16.943v-62.348c0-0.489 0.395-0.886 0.88-0.886zM797.158 419.459v11.447c0 0.491-0.396 0.89-0.882 0.89s-0.879-0.4-0.879-0.89v-11.447c0-0.491 0.394-0.89 0.879-0.89s0.882 0.4 0.882 0.89zM773.614 418.569c0.484 0 0.879 0.4 0.879 0.89v11.447c0 0.491-0.395 0.891-0.879 0.891-0.486 0-0.881-0.401-0.881-0.891v-11.447c0-0.491 0.395-0.89 0.881-0.89zM729.167 350.772v11.45c0 0.489-0.394 0.886-0.879 0.886-0.487 0-0.882-0.398-0.882-0.886v-11.45c0-0.489 0.395-0.886 0.882-0.886 0.485 0 0.879 0.398 0.879 0.886zM773.614 384.229c0.484 0 0.879 0.398 0.879 0.886v11.451c0 0.489-0.395 0.887-0.879 0.887-0.486 0-0.881-0.399-0.881-0.887v-11.451c0-0.489 0.395-0.886 0.881-0.886zM729.167 304.986v22.893c0 0.491-0.394 0.891-0.879 0.891-0.487 0-0.882-0.401-0.882-0.891v-22.893c0-0.491 0.395-0.89 0.882-0.89 0.485 0 0.879 0.4 0.879 0.89zM729.167 385.115v11.451c0 0.489-0.394 0.886-0.879 0.886-0.487 0-0.882-0.398-0.882-0.886v-11.451c0-0.489 0.395-0.886 0.882-0.886 0.485 0 0.879 0.398 0.879 0.886zM751.83 304.982v183.164c0 0.408-0.272 0.762-0.662 0.861l-90.654 22.894c-0.259 0.064-0.546 0.004-0.755-0.16-0.219-0.173-0.343-0.43-0.343-0.701v-125.924c0-0.489 0.396-0.886 0.881-0.886s0.882 0.398 0.882 0.886v124.782l88.889-22.447v-182.469c0.001-0.486 0.396-0.886 0.882-0.886s0.88 0.398 0.88 0.886zM614.972 500.48c-0.483 0-0.878-0.398-0.878-0.885v-11.448c0-0.491 0.395-0.89 0.878-0.89 0.487 0 0.882 0.4 0.882 0.89v11.448c0 0.488-0.396 0.885-0.882 0.885zM614.972 534.824c-0.483 0-0.878-0.398-0.878-0.886v-11.451c0-0.489 0.395-0.887 0.878-0.887 0.487 0 0.882 0.399 0.882 0.887v11.451c0 0.489-0.396 0.886-0.882 0.886zM569.647 363.109c-0.483 0-0.878-0.398-0.878-0.886v-11.45c0-0.489 0.395-0.887 0.878-0.887 0.486 0 0.882 0.399 0.882 0.887v11.45c0 0.489-0.396 0.886-0.882 0.886zM593.189 304.986v148.817c0 0.489-0.394 0.887-0.878 0.887h-67.99c-0.486 0-0.882-0.399-0.882-0.887v-34.344c0-0.491 0.396-0.89 0.882-0.89s0.881 0.4 0.881 0.89v33.452h66.228v-147.926c0-0.491 0.396-0.89 0.881-0.89s0.878 0.4 0.878 0.89zM593.189 488.146v11.448c0 0.488-0.394 0.885-0.878 0.885s-0.881-0.398-0.881-0.885v-11.448c0-0.491 0.396-0.889 0.881-0.889s0.878 0.399 0.878 0.889zM614.972 569.167c-0.483 0-0.878-0.4-0.878-0.89v-11.447c0-0.49 0.395-0.89 0.878-0.89 0.487 0 0.882 0.401 0.882 0.89v11.447c0 0.491-0.396 0.89-0.882 0.89zM569.647 328.77c-0.483 0-0.878-0.4-0.878-0.89v-22.894c0-0.491 0.395-0.89 0.878-0.89 0.486 0 0.882 0.4 0.882 0.89v22.894c0 0.491-0.396 0.89-0.882 0.89zM502.537 373.669c0 12.134 9.772 22.007 21.784 22.007s21.784-9.873 21.784-22.007c0-12.134-9.771-22.006-21.784-22.006s-21.784 9.872-21.784 22.006zM638.515 339.327c0 12.134 9.772 22.006 21.783 22.006s21.783-9.872 21.783-22.006c0-12.136-9.771-22.006-21.783-22.006s-21.783 9.87-21.783 22.006zM797.158 345.051c0 8.977 7.23 16.282 16.117 16.282s16.116-7.304 16.116-16.282c0-8.978-7.229-16.282-16.116-16.282s-16.117 7.303-16.117 16.282zM830.27 281.199c0.484 0 0.879 0.4 0.879 0.89s-0.395 0.89-0.879 0.89h-16.117v43.729l3.583 0.939c7.899 2.074 13.416 9.23 13.416 17.404 0 9.959-8.021 18.061-17.879 18.061s-17.877-8.102-17.877-18.061c0-8.173 5.517-15.329 13.416-17.404l3.582-0.939v-43.729h-151.216v32.257l3.829 0.788c10.912 2.248 18.832 12.048 18.832 23.302 0 13.115-10.561 23.786-23.543 23.786s-23.542-10.671-23.542-23.786c0-11.254 7.92-21.053 18.832-23.302l3.829-0.788v-32.257h-134.215v66.596l3.828 0.79c10.912 2.25 18.833 12.051 18.833 23.304 0 13.114-10.561 23.784-23.543 23.784s-23.542-10.67-23.542-23.784c0-11.253 7.921-21.053 18.834-23.304l3.827-0.79v-66.596h-21.781c-0.485 0-0.881-0.4-0.881-0.89s0.396-0.89 0.881-0.89zM547.864 304.986v22.893c0 0.491-0.394 0.891-0.879 0.891s-0.881-0.401-0.881-0.891v-22.893c0-0.491 0.395-0.89 0.881-0.89s0.879 0.4 0.879 0.89zM569.647 431.797c-0.483 0-0.878-0.4-0.878-0.89v-11.447c0-0.491 0.395-0.891 0.878-0.891 0.486 0 0.882 0.401 0.882 0.891v11.447c0 0.491-0.396 0.89-0.882 0.89zM569.647 397.453c-0.483 0-0.878-0.398-0.878-0.886v-11.451c0-0.489 0.395-0.887 0.878-0.887 0.486 0 0.882 0.399 0.882 0.887v11.451c0 0.489-0.396 0.886-0.882 0.886zM547.864 419.459v11.447c0 0.491-0.394 0.89-0.879 0.89s-0.881-0.4-0.881-0.89v-11.447c0-0.491 0.395-0.89 0.881-0.89s0.879 0.4 0.879 0.89zM614.972 397.453c-0.483 0-0.878-0.398-0.878-0.886v-11.451c0-0.489 0.395-0.887 0.878-0.887 0.487 0 0.882 0.399 0.882 0.887v11.451c0 0.489-0.396 0.886-0.882 0.886zM638.515 453.803v11.447c0 0.491-0.394 0.889-0.878 0.889-0.486 0-0.882-0.399-0.882-0.889v-11.447c0-0.491 0.396-0.89 0.882-0.89 0.484 0 0.878 0.4 0.878 0.89zM638.515 488.146v11.448c0 0.488-0.394 0.885-0.878 0.885-0.486 0-0.882-0.398-0.882-0.885v-11.448c0-0.491 0.396-0.889 0.882-0.889 0.484 0 0.878 0.399 0.878 0.889zM638.515 419.459v11.447c0 0.491-0.394 0.89-0.878 0.89-0.486 0-0.882-0.4-0.882-0.89v-11.447c0-0.491 0.396-0.89 0.882-0.89 0.484 0 0.878 0.4 0.878 0.89zM638.515 385.115v11.451c0 0.489-0.394 0.886-0.878 0.886-0.486 0-0.882-0.398-0.882-0.886v-11.451c0-0.489 0.396-0.886 0.882-0.886 0.484 0 0.878 0.398 0.878 0.886zM638.515 522.486v11.451c0 0.489-0.394 0.886-0.878 0.886-0.486 0-0.882-0.398-0.882-0.886v-11.451c0-0.489 0.396-0.886 0.882-0.886 0.484 0 0.878 0.398 0.878 0.886zM614.972 363.109c-0.483 0-0.878-0.398-0.878-0.886v-11.45c0-0.489 0.395-0.887 0.878-0.887 0.487 0 0.882 0.399 0.882 0.887v11.45c0 0.489-0.396 0.886-0.882 0.886zM660.298 533.046c0.486 0 0.882 0.4 0.882 0.89v51.512c0 0.339-0.188 0.645-0.493 0.798l-33.501 16.923v10.897c0 0.491-0.396 0.89-0.882 0.89-0.484 0-0.878-0.4-0.878-0.89v-10.897l-33.507-16.92c-0.297-0.152-0.488-0.46-0.488-0.801v-50.965l-22.176-11.196c-0.296-0.151-0.485-0.457-0.485-0.798v-45.79c0-0.491 0.394-0.891 0.877-0.891 0.486 0 0.882 0.399 0.882 0.887v45.242l22.174 11.201c0.296 0.151 0.486 0.458 0.486 0.798v50.962l33.115 16.727 33.115-16.727v-50.962c0-0.491 0.395-0.89 0.88-0.89zM614.972 431.797c-0.483 0-0.878-0.4-0.878-0.89v-11.447c0-0.491 0.395-0.891 0.878-0.891 0.487 0 0.882 0.401 0.882 0.891v11.447c0 0.491-0.396 0.89-0.882 0.89zM614.972 328.77c-0.483 0-0.878-0.4-0.878-0.89v-22.894c0-0.491 0.395-0.89 0.878-0.89 0.487 0 0.882 0.4 0.882 0.89v22.894c0 0.491-0.396 0.89-0.882 0.89zM638.515 556.829v11.447c0 0.491-0.394 0.89-0.878 0.89-0.486 0-0.882-0.4-0.882-0.89v-11.447c0-0.49 0.396-0.889 0.882-0.889 0.484 0 0.878 0.4 0.878 0.889zM614.972 466.139c-0.483 0-0.878-0.399-0.878-0.889v-11.447c0-0.491 0.395-0.891 0.878-0.891 0.487 0 0.882 0.401 0.882 0.891v11.447c0 0.491-0.396 0.889-0.882 0.889zM419.324 290.991c0 0.499-0.4 0.904-0.891 0.904h-123.186c-0.492 0-0.892-0.405-0.892-0.904v-8.889c0-0.499 0.401-0.904 0.892-0.904s0.894 0.405 0.894 0.904v7.989h122.292c0.492 0 0.891 0.403 0.891 0.9zM331.336 458.981h15.809v-24.86h-15.809zM330.441 432.315h17.599c0.492 0 0.892 0.404 0.892 0.901v26.667c0 0.498-0.401 0.903-0.892 0.903h-17.599c-0.492 0-0.891-0.405-0.891-0.903v-26.667c0-0.497 0.4-0.901 0.891-0.901zM234.547 397.66v87.988h51.9c0.494 0 0.894 0.405 0.894 0.904 0 0.497-0.401 0.901-0.894 0.901h-52.793c-0.493 0-0.894-0.404-0.894-0.901v-88.892c0-0.497 0.401-0.901 0.894-0.901s0.892 0.404 0.892 0.901zM461.533 327.45h-15.811v24.86h15.811zM462.425 354.119h-17.596c-0.494 0-0.894-0.405-0.894-0.904v-26.668c0-0.495 0.401-0.9 0.894-0.9h17.596c0.494 0 0.895 0.405 0.895 0.9v26.668c0 0.499-0.401 0.904-0.895 0.904zM251.252 309.672c-9.212 0-16.706 7.57-16.706 16.874 0 16.427 4.207 52.433 16.706 52.433s16.704-36.007 16.704-52.433c0-9.304-7.493-16.874-16.704-16.874zM269.743 326.546c-0.014 14.071-3.44 54.237-18.491 54.237s-18.477-40.166-18.491-54.237c0-8.838 6.221-16.535 14.79-18.301l2.806-0.578v-25.565c0-0.499 0.401-0.904 0.895-0.904s0.894 0.405 0.894 0.904v25.565l2.806 0.578c8.571 1.766 14.791 9.463 14.791 18.301zM278.541 379.882v26.666c0 0.31-0.141 0.517-0.26 0.638s-0.326 0.265-0.632 0.265h-17.599c-0.492 0-0.892-0.404-0.892-0.901v-8.891c0-0.497 0.401-0.901 0.892-0.901 0.494 0 0.894 0.404 0.894 0.901v7.987h15.81v-25.764c0-0.498 0.401-0.903 0.894-0.903s0.892 0.405 0.892 0.903zM461.533 434.12h-15.811v24.86h15.811zM462.425 460.787h-17.596c-0.494 0-0.894-0.405-0.894-0.903v-26.667c0-0.497 0.401-0.901 0.894-0.901h17.596c0.494 0 0.895 0.404 0.895 0.901v26.667c0 0.498-0.401 0.903-0.895 0.903zM260.944 458.981h15.81v-24.86h-15.81zM277.65 432.315c0.492 0 0.891 0.404 0.891 0.901v26.667c0.001 0.311-0.141 0.518-0.26 0.639s-0.326 0.264-0.631 0.264h-17.6c-0.492 0-0.891-0.405-0.891-0.903v-26.667c0-0.497 0.4-0.901 0.891-0.901zM375.329 458.981h15.813v-24.86h-15.813zM392.035 432.315c0.493 0 0.894 0.404 0.894 0.901v26.667c0 0.498-0.401 0.903-0.894 0.903h-17.597c-0.494 0-0.894-0.405-0.894-0.903v-26.667c0-0.497 0.401-0.901 0.894-0.901zM444.829 298.978c1.524 0 2.964-0.433 4.279-1.287 0.252-0.163 0.553-0.191 0.827-0.080 0.27 0.112 0.466 0.344 0.53 0.624 1.301 5.673 6.219 9.631 11.96 9.631s10.661-3.958 11.959-9.621c0.067-0.289 0.264-0.523 0.53-0.633 0.275-0.113 0.583-0.084 0.829 0.078 2.377 1.548 5.445 1.636 8.003 0.229 2.579-1.418 4.181-4.074 4.181-6.928 0-4.402-3.546-7.985-7.903-7.985h-35.196c-4.359 0-7.906 3.583-7.906 7.985 0 4.405 3.547 7.988 7.906 7.988zM444.829 281.199h35.196c5.345 0 9.694 4.393 9.694 9.792v195.561c0 0.497-0.402 0.901-0.896 0.901h-52.792c-0.493 0-0.894-0.404-0.894-0.901 0-0.499 0.401-0.904 0.894-0.904h51.897v-188.828c-0.065 0.046-0.479 0.42-1.304 1.255s-3.335 2.066-3.379 2.097c-0.795 0.3-1.943 0.614-3.335 0.608-0.522-0.002-1.033-0.051-1.537-0.14l-2.461-0.44-1.214 2.208c-2.462 4.482-7.165 7.266-12.273 7.266-5.106 0-9.807-2.784-12.27-7.266l-1.214-2.208-2.461 0.44c-0.538 0.096-1.093 0.145-1.651 0.145-5.344 0-9.693-4.394-9.693-9.793s4.349-9.792 9.693-9.792zM375.329 512.316h15.813v-24.863h-15.813zM392.035 485.648c0.493 0 0.894 0.405 0.894 0.904v26.665c0 0.497-0.401 0.902-0.894 0.902h-17.597c-0.494 0-0.894-0.405-0.894-0.902v-26.665c0-0.499 0.401-0.904 0.894-0.904zM375.329 405.647h15.813v-24.863h-15.813zM392.035 378.98c0.493 0 0.894 0.405 0.894 0.902v26.668c0 0.497-0.401 0.901-0.894 0.901h-17.597c-0.494 0-0.894-0.404-0.894-0.901v-26.668c0-0.497 0.401-0.902 0.894-0.902zM331.336 512.316h15.809v-24.863h-15.809zM330.441 485.648h17.599c0.492 0 0.892 0.405 0.892 0.904v26.665c0 0.497-0.401 0.902-0.892 0.902h-17.599c-0.492 0-0.891-0.405-0.891-0.902v-26.665c0-0.499 0.4-0.904 0.891-0.904zM361.881 325.901c0.151 0.193 0.253 0.448 0.253 0.646 0 0.207-0.104 0.463-0.264 0.661-0.315 0.25-0.948 0.25-1.263-0.001-0.158-0.194-0.262-0.451-0.262-0.66 0-0.199 0.101-0.454 0.252-0.646 0.355-0.286 0.802-0.388 1.284 0zM331.336 405.647h15.809v-24.863h-15.809zM330.441 378.98h17.599c0.492 0 0.892 0.405 0.892 0.902v26.668c0 0.497-0.401 0.901-0.892 0.901h-17.599c-0.492 0-0.891-0.404-0.891-0.901v-26.668c0-0.497 0.4-0.902 0.891-0.902zM384.128 308.771v43.543h16.705c0.493 0 0.894 0.405 0.894 0.901 0 0.499-0.401 0.904-0.894 0.904h-79.19c-0.492 0-0.892-0.405-0.892-0.904 0-0.496 0.401-0.901 0.892-0.901h16.705v-43.543c0-0.499 0.401-0.904 0.894-0.904s0.892 0.405 0.892 0.904v43.543h42.208v-43.543c0-0.499 0.401-0.904 0.895-0.904 0.492 0 0.891 0.405 0.891 0.904zM461.533 380.783h-15.811v24.863h15.811zM462.425 407.451h-17.596c-0.494 0-0.894-0.404-0.894-0.901v-26.668c0-0.497 0.401-0.902 0.894-0.902h17.596c0.494 0 0.895 0.405 0.895 0.902v26.668c0 0.497-0.401 0.901-0.895 0.901zM419.324 308.771v231.115c0 0.309-0.141 0.518-0.26 0.637-0.12 0.122-0.326 0.265-0.631 0.265h-114.386c-0.493 0-0.894-0.405-0.894-0.902v-231.115c0-0.499 0.401-0.904 0.894-0.904s0.892 0.405 0.892 0.904v230.213h112.598v-230.213c0-0.499 0.401-0.904 0.895-0.904 0.492 0 0.891 0.405 0.891 0.904zM167.528 284.258c0.359 0.793 0.541 1.651 0.541 2.547 0 0.186-0.003 0.37-0.011 0.554l-0.038 0.985h3.815v-5.458h-4.927zM173.323 288.344h3.766v-5.459h-3.766zM158.218 281.199h34.957c0.41 0 0.745 0.379 0.745 0.843s-0.335 0.844-0.745 0.844h-14.598v5.458h11.866c5.046 0 9.151 4.652 9.151 10.372v2.38c0 13.599-9.761 24.662-21.76 24.662-1.19 0-2.381-0.109-3.544-0.326l-0.967-0.179v4.426c0 2.162 1.552 3.92 3.459 3.92h2.102c0.41 0 0.744 0.378 0.744 0.843s-0.334 0.843-0.744 0.843h-2.102c-0.792 0-1.548-0.206-2.247-0.613l-1.212-0.704v5.237c0 0.464-0.334 0.843-0.744 0.843s-0.744-0.379-0.744-0.843v-10.001l-1.212 0.705c-0.699 0.405-1.455 0.612-2.247 0.612h-2.102c-0.41 0-0.744-0.378-0.744-0.842s0.334-0.844 0.744-0.844h2.102c1.648 0 3.076-1.33 3.395-3.163l0.142-0.825-0.706-0.255c-8.102-2.932-13.983-11.005-14.983-20.566-0.024-0.224 0.032-0.444 0.155-0.621s0.299-0.289 0.497-0.315c0.407-0.056 0.778 0.277 0.827 0.738 1.206 11.54 9.861 20.243 20.132 20.243 11.177 0 20.271-10.306 20.271-22.975v-2.38c0-4.789-3.437-8.685-7.662-8.685h-11.866v3.92c0 2.162 1.552 3.921 3.459 3.921h2.102c0.41 0 0.744 0.379 0.744 0.844s-0.334 0.842-0.744 0.842h-2.102c-1.006 0-1.975-0.342-2.803-0.989l-0.775-0.607-0.435 0.947c-0.858 1.869-2.54 3.030-4.394 3.030h-2.102c-0.409 0-0.744-0.379-0.744-0.844s0.335-0.843 0.744-0.843h2.102c1.908 0 3.459-1.759 3.459-3.92v-6.302h-9.367l-0.185 0.655c-1.5 5.307-5.808 8.872-10.721 8.872h-2.102c-6.205 0-11.253-5.721-11.253-12.753 0-0.896 0.182-1.754 0.541-2.547l0.62-1.372h-10.925c-0.41 0-0.745-0.379-0.745-0.844s0.335-0.843 0.745-0.843h19.055c0.41 0 0.744 0.379 0.744 0.843s-0.334 0.844-0.744 0.844h-4.344c-1.907 0-3.459 1.758-3.459 3.92 0 6.102 4.38 11.066 9.764 11.066h2.102c5.383 0 9.763-4.964 9.763-11.066 0-2.162-1.551-3.92-3.459-3.92h-4.903c-0.41 0-0.744-0.379-0.744-0.844s0.334-0.843 0.744-0.843zM149.46 364.563h4.203c1.328 0 2.408-1.224 2.408-2.729s-1.080-2.729-2.408-2.729h-4.203c-1.328 0-2.408 1.225-2.408 2.729s1.080 2.729 2.408 2.729zM210.409 343.127c1.327 0 2.408-1.224 2.408-2.73 0-1.504-1.081-2.729-2.408-2.729h-2.102c-1.328 0-2.408 1.225-2.408 2.729 0 1.506 1.080 2.73 2.408 2.73zM142.105 315.905h12.751c0.41 0 0.744 0.378 0.744 0.844s-0.334 0.843-0.744 0.843h-12.751c-4.225 0-7.662 3.895-7.662 8.684 0 11.927 4.413 23.443 12.11 31.592l0.448 0.474 0.533-0.345c0.584-0.379 1.251-0.579 1.927-0.579h4.203c2.149 0 3.897 1.981 3.897 4.416 0 0.931-0.253 1.821-0.734 2.577l-0.599 0.941 0.936 0.471c4.849 2.438 10.034 3.673 15.415 3.673 14.588 0 27.68-9.197 34.168-24.003l0.352-0.802-0.691-0.438c-1.233-0.784-1.999-2.262-1.999-3.857 0-2.435 1.748-4.416 3.897-4.416h1.449l0.139-0.749c0.544-2.929 0.82-5.944 0.82-8.956 0-4.789-3.438-8.685-7.663-8.685h-3.182c-0.41 0-0.744-0.378-0.744-0.843s0.334-0.843 0.744-0.843h3.182c5.046 0 9.151 4.652 9.151 10.371 0 3.022-0.266 6.046-0.793 8.985l-0.136 0.76 0.631 0.298c1.458 0.69 2.4 2.291 2.4 4.077 0 2.435-1.747 4.417-3.896 4.417h-1.724l-0.225 0.542c-6.502 15.69-20.587 25.828-35.881 25.828-6.233 0-12.445-1.684-17.965-4.87l-0.227-0.131-0.251 0.034c-0.155 0.022-0.312 0.033-0.472 0.033h-4.203c-2.149 0-3.896-1.982-3.896-4.417 0-0.555 0.089-1.096 0.267-1.608l0.207-0.598-0.415-0.437c-8.051-8.474-12.669-20.471-12.669-32.915 0-5.719 4.105-10.371 9.151-10.371zM212.853 360.314l0.658-2.311c0.123-0.434 0.555-0.681 0.936-0.545 0.391 0.143 0.607 0.62 0.481 1.063l-0.659 2.31c-0.061 0.215-0.191 0.39-0.369 0.492-0.107 0.063-0.223 0.093-0.339 0.093-0.077 0-0.154-0.014-0.229-0.040-0.391-0.143-0.606-0.619-0.48-1.062zM153.664 328.141h-8.406c-1.329 0-2.409 1.224-2.409 2.729s1.080 2.73 2.409 2.73h8.406c1.328 0 2.408-1.225 2.408-2.73s-1.080-2.729-2.408-2.729zM153.664 335.286h-8.406c-2.149 0-3.898-1.98-3.898-4.416 0-2.434 1.749-4.416 3.898-4.416h8.406c2.149 0 3.897 1.982 3.897 4.416 0 2.436-1.748 4.416-3.897 4.416zM143.256 306.327c-0.174 0-0.341-0.068-0.476-0.196v0l-1.645-1.556c-0.152-0.145-0.246-0.348-0.264-0.572s0.042-0.443 0.17-0.615c0.141-0.192 0.35-0.303 0.572-0.303 0.123 0 0.305 0.033 0.475 0.196l1.645 1.555c0.315 0.298 0.358 0.831 0.095 1.189-0.128 0.173-0.306 0.28-0.505 0.299-0.023 0.003-0.045 0.004-0.068 0.004zM151.869 291.808v-0.238c0-0.465 0.334-0.844 0.744-0.844s0.745 0.379 0.745 0.844v0.238c0 0.465-0.335 0.843-0.745 0.843s-0.744-0.378-0.744-0.843zM162.831 381.511c-0.206-0.401-0.085-0.92 0.269-1.153l1.852-1.221c0.349-0.23 0.819-0.082 1.018 0.305 0.206 0.402 0.085 0.92-0.269 1.153l-1.852 1.221c-0.355 0.233-0.812 0.096-1.018-0.305zM135.515 363.928c-0.018-0.225 0.042-0.443 0.17-0.616 0.142-0.193 0.351-0.303 0.572-0.303 0.123 0 0.305 0.034 0.477 0.196l1.644 1.556c0.153 0.144 0.246 0.347 0.265 0.571s-0.042 0.444-0.17 0.617c-0.264 0.357-0.733 0.406-1.048 0.106l-1.645-1.556c-0.153-0.144-0.246-0.347-0.265-0.571zM204.539 391.749c-0.119-0.181-0.167-0.402-0.138-0.626 0.061-0.453 0.444-0.772 0.851-0.709l2.114 0.359c0.197 0.033 0.37 0.151 0.489 0.333 0.118 0.18 0.167 0.403 0.137 0.626s-0.134 0.418-0.294 0.553c-0.13 0.109-0.283 0.166-0.44 0.166-0.037 0-0.075-0.004-0.112-0.010l-2.119-0.359c-0.197-0.032-0.37-0.15-0.488-0.333zM207.256 290.726h8.266c0.41 0 0.745 0.379 0.745 0.843s-0.335 0.843-0.745 0.843h-1.961c-1.907 0-3.458 1.759-3.458 3.921s1.551 3.92 3.458 3.92h10.508c1.907 0 3.458-1.759 3.458-3.92s-1.551-3.921-3.458-3.921h-3.118c-0.41 0-0.744-0.378-0.744-0.843s0.334-0.843 0.744-0.843h3.118c1.907 0 3.458-1.759 3.458-3.921s-1.551-3.92-3.458-3.92h-16.814c-1.906 0-3.458 1.758-3.458 3.92s1.552 3.921 3.458 3.921zM210.102 305.861c0 2.161 1.551 3.919 3.458 3.919h2.102c1.907 0 3.459-1.758 3.459-3.919s-1.552-3.921-3.459-3.921h-2.102c-1.907 0-3.458 1.759-3.458 3.921zM198.85 281.198h31.524c0.41 0 0.744 0.379 0.744 0.843s-0.334 0.844-0.744 0.844h-2.519l0.62 1.372c0.359 0.793 0.541 1.651 0.541 2.547 0 1.557-0.553 3.005-1.555 4.078l-0.642 0.686 0.642 0.686c1.002 1.072 1.555 2.521 1.555 4.078 0 3.091-2.219 5.607-4.947 5.607h-4.621l0.62 1.372c0.359 0.794 0.541 1.651 0.541 2.548 0 3.091-2.219 5.607-4.947 5.607h-2.102c-2.728 0-4.947-2.516-4.947-5.607 0-1.557 0.553-3.006 1.556-4.078l0.642-0.687-0.642-0.685c-1.003-1.073-1.556-2.521-1.556-4.078 0-0.897 0.182-1.754 0.541-2.548l0.62-1.372h-2.519c-2.728 0-4.947-2.516-4.947-5.607 0-0.896 0.183-1.754 0.541-2.547l0.62-1.372h-4.62c-0.41 0-0.745-0.379-0.745-0.844s0.335-0.843 0.745-0.843zM184.882 308.243v0.238c0 0.466-0.334 0.845-0.744 0.845s-0.744-0.379-0.744-0.845v-0.238c0-0.466 0.334-0.843 0.744-0.843s0.744 0.377 0.744 0.843zM186.984 315.387v0.239c0 0.465-0.334 0.844-0.744 0.844s-0.745-0.379-0.745-0.844v-0.239c0-0.465 0.335-0.842 0.745-0.842s0.744 0.377 0.744 0.842zM225.555 375.077c-0.118-0.182-0.167-0.403-0.137-0.626 0.060-0.451 0.439-0.782 0.842-0.71l2.123 0.36c0.405 0.069 0.686 0.499 0.625 0.957-0.055 0.418-0.374 0.721-0.737 0.721-0.036 0-0.073-0.003-0.11-0.010l-2.117-0.36c-0.197-0.032-0.37-0.15-0.489-0.332zM223.259 320.444c0.079-0.448 0.465-0.752 0.875-0.662l2.102 0.477c0.195 0.043 0.363 0.172 0.473 0.359s0.15 0.412 0.111 0.633c-0.071 0.4-0.383 0.677-0.73 0.677-0.049 0-0.097-0.004-0.146-0.016l-2.1-0.476c-0.402-0.091-0.665-0.537-0.584-0.993zM189.392 347.196h-4.203c-1.328 0-2.408 1.225-2.408 2.729s1.080 2.73 2.408 2.73h4.203c1.328 0 2.409-1.226 2.409-2.73s-1.081-2.729-2.409-2.729zM189.392 354.341h-4.203c-2.149 0-3.896-1.981-3.896-4.416s1.747-4.415 3.896-4.415h4.203c2.149 0 3.897 1.981 3.897 4.415s-1.748 4.416-3.897 4.416zM191.188 309.314v0.238c0 0.466-0.334 0.845-0.745 0.845s-0.744-0.379-0.744-0.845v-0.238c0-0.465 0.334-0.842 0.744-0.842s0.745 0.377 0.745 0.842zM7.35 294.74c2.625 0 4.967-1.57 5.828-3.906 0.134-0.36 0.495-0.563 0.882-0.502 0.37 0.069 0.641 0.398 0.641 0.781 0 4.436 3.573 8.047 7.967 8.047s7.965-3.61 7.965-8.047c0-0.439 0.353-0.795 0.786-0.795 1.98 0 3.591-1.628 3.591-3.627s-1.611-3.627-3.591-3.627h-24.069c-3.186 0-5.778 2.619-5.778 5.839 0 3.218 2.592 5.837 5.778 5.837zM7.35 281.476h24.069c2.846 0 5.161 2.34 5.161 5.215 0 2.266-1.434 4.26-3.568 4.962l-0.803 0.266-0.144 0.839c-0.79 4.63-4.743 7.991-9.397 7.991-3.663 0-6.946-2.070-8.567-5.403l-0.729-1.496-1.344 0.969c-0.277 0.199-0.586 0.389-0.946 0.577l-0.756 0.398v37.316c0 0.438-0.353 0.794-0.787 0.794s-0.786-0.356-0.786-0.794v-36.783h-1.402c-4.052 0-7.35-3.33-7.35-7.424s3.297-7.427 7.35-7.427zM128.477 337.534v55.26c0 0.213-0.081 0.412-0.23 0.561-0.148 0.151-0.346 0.234-0.556 0.234h-41.573c-0.434 0-0.787-0.357-0.787-0.795s0.353-0.793 0.787-0.793h40.785v-52.551l-62.11 62.748c-0.273 0.276-0.849 0.277-1.123 0.001l-62.1-62.746v52.548h25.47c0.434 0 0.787 0.356 0.787 0.793v8.843c0 0.437-0.353 0.793-0.787 0.793h-3.588v7.255h15.931v-7.255h-3.59c-0.433 0-0.785-0.356-0.785-0.793v-8.843c0-0.437 0.352-0.793 0.785-0.793h6.564c0.433 0 0.785 0.356 0.785 0.793s-0.352 0.795-0.785 0.795h-5.779v7.252h3.591c0.433 0 0.785 0.357 0.785 0.795v8.843c0 0.437-0.352 0.793-0.785 0.793h-17.505c-0.433 0-0.786-0.356-0.786-0.793v-8.843c0-0.438 0.353-0.795 0.786-0.795h3.591v-7.252h-25.471c-0.208 0-0.409-0.084-0.554-0.23-0.148-0.149-0.233-0.355-0.233-0.565l0.009-55.26c0-0.322 0.191-0.61 0.487-0.734 0.292-0.121 0.634-0.053 0.852 0.17l62.884 63.551 62.905-63.549c0.218-0.223 0.565-0.29 0.864-0.17 0.289 0.123 0.477 0.41 0.477 0.732zM121.128 283.065h-24.069c-1.979 0-3.59 1.627-3.59 3.626s1.611 3.628 3.59 3.628c0.434 0 0.786 0.356 0.786 0.793 0 4.438 3.574 8.048 7.966 8.048 4.394 0 7.967-3.609 7.967-8.048 0-0.384 0.271-0.712 0.645-0.781s0.745 0.144 0.879 0.505c0.86 2.335 3.201 3.905 5.826 3.905 3.185 0 5.777-2.619 5.777-5.838s-2.592-5.838-5.777-5.838zM121.128 296.328h-1.402v36.782c0 0.439-0.352 0.795-0.785 0.795s-0.786-0.356-0.786-0.795v-37.315l-0.756-0.398c-0.367-0.193-0.676-0.382-0.945-0.576l-1.346-0.972-0.729 1.498c-1.622 3.332-4.905 5.403-8.567 5.403-4.654 0-8.607-3.36-9.398-7.991l-0.144-0.839-0.803-0.266c-2.134-0.704-3.568-2.698-3.568-4.963 0-0.555 0.105-1.119 0.322-1.727l0.678-1.899h-39.598c-0.434 0-0.786-0.355-0.786-0.794 0-0.437 0.352-0.792 0.786-0.792h67.829c1.96 0 3.805 0.773 5.195 2.176s2.156 3.268 2.156 5.248c0 4.094-3.297 7.425-7.351 7.425zM64.239 362.641c-3.186 0-5.779 2.619-5.779 5.837 0 3.22 2.593 5.839 5.779 5.839s5.778-2.619 5.778-5.839c0-3.218-2.592-5.837-5.778-5.837zM64.239 375.904c-4.053 0-7.351-3.332-7.351-7.426s3.297-7.424 7.351-7.424c4.052 0 7.35 3.33 7.35 7.424s-3.297 7.426-7.35 7.426zM105.026 322.853h-15.933v11.675h15.933zM105.026 309.591h-15.933v11.675h15.933zM105.812 336.116h-17.504c-0.434 0-0.787-0.356-0.787-0.794v-25.731h-3.591c-0.433 0-0.785-0.356-0.785-0.794s0.352-0.794 0.785-0.794h26.258c0.433 0 0.786 0.356 0.786 0.794s-0.353 0.794-0.786 0.794h-3.591v25.731c0 0.438-0.352 0.794-0.785 0.794zM74.393 314.012h-3.589c-0.434 0-0.787-0.356-0.787-0.794s0.353-0.793 0.787-0.793h3.589v-20.518h-20.308v42.621h20.308zM75.179 336.116h-21.88c-0.433 0-0.786-0.356-0.786-0.794v-43.416h-7.966c-0.433 0-0.785-0.355-0.785-0.792v-8.843c0-0.437 0.352-0.793 0.785-0.793s0.786 0.356 0.786 0.793v8.048h38.597c0.434 0 0.786 0.357 0.786 0.795s-0.352 0.792-0.786 0.792h-7.964v43.416c0 0.438-0.353 0.794-0.787 0.794zM39.384 322.853h-15.931v11.675h15.931zM39.384 309.591h-15.931v11.675h15.931zM40.171 336.116h-17.504c-0.434 0-0.787-0.356-0.787-0.794v-25.731h-3.589c-0.434 0-0.786-0.356-0.786-0.794s0.352-0.794 0.786-0.794h26.256c0.434 0 0.786 0.355 0.786 0.793s-0.352 0.795-0.786 0.795h-3.59v25.731c0 0.438-0.352 0.794-0.786 0.794z" />
<glyph unicode="&#xe906;" glyph-name="icon1-planos" d="M67.828 38.5c-19.109 0-34.657-15.548-34.657-34.657 0-19.126 15.548-34.657 34.657-34.657h187.915c9.697 0 17.588 7.874 17.588 17.554 0 9.697-7.891 17.604-17.588 17.604-9.145 0-16.568 7.44-16.568 16.585 0 28.522-23.222 51.743-51.76 51.743s-51.743-23.222-51.743-51.743c0-8.025-5.718-14.896-13.592-16.317-8.292-1.237-15.749 3.026-18.524 10.499-5.216 13.993-19.577 23.389-35.727 23.389zM255.743-64h-187.915c-37.399 0-67.827 30.427-67.827 67.843 0 37.399 30.427 67.827 67.827 67.827h0.502v273.831c0 9.145 7.44 16.585 16.585 16.585s16.601-7.44 16.601-16.585l0.284-282.223c3.26-1.672 6.085-3.394 8.61-5.199l0.485-0.351 0.267 0.552c14.428 29.341 43.652 47.564 76.253 47.564 41.445 0 76.637-29.608 83.676-70.418l0.334-0.368c20.982-6.855 35.075-26.265 35.075-48.316 0-27.987-22.77-50.74-50.757-50.74zM13.575 382.697c0 0-0.017-0.017-0.017-0.033zM16.601 363.103c-2.107 0-4.23 0.401-6.236 1.22-6.303 2.675-10.299 8.677-10.299 15.347l-0.067 427.071c0 4.38 1.772 8.677 4.882 11.77 3.126 3.093 7.373 4.815 11.703 4.815h188.416v35.176h-17.588c-9.128 0-16.585 7.44-16.585 16.585v68.328c0 9.145 7.456 16.585 16.585 16.585h136.673c9.145 0 16.568-7.44 16.568-16.585v-68.328c0-9.145-7.423-16.585-16.568-16.585h-17.588v-35.176h34.674c9.145 0 16.568-7.44 16.568-16.585s-7.423-16.568-16.568-16.568h-51.259c-9.145 0-16.585 7.423-16.585 16.568v68.345c0 9.145 7.44 16.568 16.585 16.568h17.588v35.192h-103.487v-35.192h17.571c9.145 0 16.585-7.423 16.585-16.568v-68.345c0-9.145-7.44-16.568-16.585-16.568h-188.416v-370.446l467.012 467.095c6.32 6.253 17.304 6.219 23.556-0.033l467.079-467.079v370.463h-307.986c-9.145 0-16.585 7.423-16.585 16.568s7.44 16.585 16.585 16.585h324.588c4.414 0 8.577-1.722 11.72-4.848 3.126-3.126 4.865-7.289 4.865-11.736v-427.071c0-6.704-3.996-12.689-10.148-15.281-6.42-2.575-13.508-1.154-18.19 3.578l-483.73 483.713-483.58-483.747c-3.093-3.126-7.406-4.832-11.753-4.832zM836.582 72.673c-28.538 0-51.743-23.222-51.743-51.76 0-9.145-7.456-16.568-16.585-16.568-9.697 0-17.588-7.908-17.588-17.604 0-9.68 7.891-17.554 17.588-17.554h187.915c19.109 0 34.657 15.531 34.657 34.657 0 19.109-15.548 34.657-34.657 34.657-16.15 0-30.494-9.379-35.694-23.356-2.876-7.607-10.616-12.021-18.624-10.516-7.791 1.404-13.525 8.259-13.525 16.284 0 28.538-23.205 51.76-51.743 51.76zM956.168-63.983h-529.572c-9.145 0-16.601 7.44-16.601 16.568 0 9.145 7.456 16.601 16.601 16.601h294.277l-0.251 0.685c-2.107 5.801-3.126 11.335-3.126 16.869 0 22.052 14.094 41.462 35.075 48.299l0.334 0.385c7.055 40.81 42.231 70.418 83.676 70.418 32.601 0 61.825-18.223 76.269-47.581l0.251-0.552 0.502 0.368c2.407 1.739 5.25 3.477 8.643 5.216l0.251 0.134v282.073c0 9.145 7.44 16.601 16.585 16.601s16.585-7.456 16.585-16.601l0.502-273.831c37.399 0 67.827-30.427 67.827-67.827 0-18.089-7.055-35.125-19.878-47.948s-29.842-19.878-47.948-19.878zM512.001 653.502c-19.126 0-34.674-15.565-34.674-34.674 0-19.126 15.548-34.657 34.674-34.657 19.109 0 34.657 15.531 34.657 34.657 0 19.109-15.548 34.674-34.657 34.674zM512.001 551.001c-37.399 0-67.843 30.411-67.843 67.827 0 37.399 30.444 67.827 67.843 67.827s67.827-30.427 67.827-67.827c0-37.416-30.427-67.827-67.827-67.827zM716.5 276.671h103.487v69.314h-103.487zM716.5 174.17h103.487v69.331h-103.487zM870.744 141.001h-205.001c-9.145 0-16.585 7.44-16.585 16.601 0 9.145 7.44 16.568 16.585 16.568h17.588v188.433c0 9.145 7.44 16.568 16.585 16.568h136.673c9.128 0 16.568-7.423 16.568-16.568v-188.433h17.588c9.145 0 16.585-7.423 16.585-16.568 0-9.162-7.44-16.601-16.585-16.601zM443.168 37.504h137.659v137.659h-17.571c-9.145 0-16.601 7.456-16.601 16.601 0 9.128 7.456 16.585 16.601 16.585h17.571v137.643h-137.659zM358.238-63.977c-9.128 0-16.568 7.423-16.568 16.568v68.345c0 9.145 7.44 16.568 16.568 16.568h51.76v325.089c0 9.145 7.44 16.585 16.585 16.585h170.829c9.145 0 16.585-7.44 16.585-16.585v-325.089h51.743c9.145 0 16.585-7.423 16.585-16.568s-7.44-16.585-16.585-16.585h-290.9v-51.76c0-9.145-7.44-16.568-16.601-16.568zM204.014 276.671h103.487v69.314h-103.487zM204.014 174.17h103.487v69.331h-103.487zM358.242 141.001h-204.984c-9.145 0-16.601 7.44-16.601 16.601 0 9.145 7.456 16.568 16.601 16.568h17.571v188.433c0 9.145 7.456 16.568 16.585 16.568h136.673c9.145 0 16.585-7.423 16.585-16.568v-188.433h17.571c9.162 0 16.601-7.44 16.601-16.585s-7.44-16.585-16.601-16.585z" />
<glyph unicode="&#xe907;" glyph-name="icon1-texto-institucional" horiz-adv-x="956" d="M296.609 414.987c-27.256 0-49.442 22.238-49.442 49.545h-32.956c0-45.534 36.966-82.586 82.398-82.586s82.398 37.052 82.398 82.586h-32.973c0-27.307-22.17-49.545-49.425-49.545zM626.167 631.471c0 10.172-4.557 19.644-12.459 26.044-7.663 6.127-17.425 8.465-26.897 6.332-17.886-3.994-36.728 2.867-48.333 17.033-9.557 11.691-13.193 26.505-10.172 41.728 3.345 16.896 16.35 31.334 33.126 36.745 8.277 2.697 16.538 3.209 24.576 1.536 10.086-2.082 20.343 0.41 28.177 6.827 7.612 6.212 11.981 15.445 11.981 25.327v67.891l-67.55 0.563c2.833 13.705 1.98 27.682-2.475 41.506-9.028 28.041-33.229 49.766-61.645 55.381-24.644 4.864-49.784-1.365-68.915-17.118s-30.106-39.032-30.106-63.812c0-5.803 0.649-11.639 1.758-16.521h-67.669v-297.302h296.602zM593.211 596.672h-230.69v231.237h34.714c10.172 0 19.644 4.54 26.010 12.527 6.11 7.663 8.414 17.476 6.298 26.863-0.751 3.362-1.109 6.775-1.109 10.155 0 14.882 6.571 28.86 18.074 38.298 11.657 9.609 26.436 13.227 41.609 10.223 16.845-3.328 31.249-16.35 36.71-33.161 2.679-8.311 3.174-16.606 1.536-24.696-2.065-10.103 0.41-20.378 6.81-28.228 6.195-7.612 15.394-11.981 25.276-11.981h34.611l-0.41-34.662c-13.636 2.816-27.546 2.014-41.318-2.458-27.955-9.028-49.698-33.28-55.296-61.764-4.898-24.747 1.314-49.937 17.033-69.137 15.701-19.166 38.912-30.191 63.676-30.191 5.803 0 11.605 0.666 16.469 1.775zM955.735 464.538c0 58.112-43.076 106.24-98.867 114.296v17.835c0 51.32-106.36 76.117-195.584 87.893l-4.318-32.751c124.894-16.469 166.929-44.766 166.929-55.142 0-22.409-122.129-66.065-346.027-66.065-223.915 0-346.044 43.657-346.044 66.065 0 10.377 42.035 38.673 166.946 55.142l-4.318 32.751c-89.225-11.776-195.584-36.574-195.584-87.893v-17.835c-55.791-8.055-98.867-56.184-98.867-114.296 0-58.266 43.264-106.462 99.243-114.364 5.717-143.804 91.495-267.316 213.846-326.793v-87.381h32.956v73.284c41.080-15.326 85.487-23.723 131.823-23.723s90.744 8.397 131.823 23.723v-73.284h32.956v87.381c122.351 59.477 208.128 182.989 213.846 326.81 55.979 7.885 99.243 56.081 99.243 114.347zM32.956 464.538c0 39.868 28.365 73.233 65.912 80.913v-161.826c-37.547 7.68-65.912 41.045-65.912 80.913zM477.867 18.586c-190.806 0-346.044 155.58-346.044 346.846v187.017c71.8-42.36 244.173-54.869 346.044-54.869s274.245 12.51 346.027 54.869v-187.017c0-191.266-155.222-346.846-346.027-346.846zM856.867 383.625v161.826c37.547-7.68 65.912-41.028 65.912-80.913s-28.365-73.233-65.912-80.913zM659.117 414.987c-27.256 0-49.425 22.238-49.425 49.545h-32.956c0-45.534 36.966-82.586 82.381-82.586 45.432 0 82.398 37.052 82.398 82.586h-32.956c0-27.307-22.17-49.545-49.442-49.545z" />
<glyph unicode="&#xe908;" glyph-name="icon1-vantagens" d="M392.187 815.274c7.834-5.274 18.432-3.157 23.689 4.659 44.561 66.339 118.785 105.934 198.538 105.934 131.756 0 238.935-107.162 238.935-238.935 0-21.658-2.884-43.094-8.585-63.727-2.509-9.062 2.833-18.466 11.913-20.975 1.502-0.444 3.055-0.631 4.54-0.631 7.492 0 14.37 4.966 16.452 12.544 6.52 23.586 9.813 48.077 9.813 72.79 0 150.58-122.506 273.069-273.069 273.069-91.154 0-175.976-45.244-226.869-121.021-5.257-7.834-3.174-18.432 4.642-23.706zM88.442 567.339c1.024 0 2.082 0.102 3.106 0.29 9.267 1.707 15.394 10.616 13.688 19.883-1.86 10.172-2.833 20.685-2.833 31.164 0 94.089 76.579 170.668 170.668 170.668 47.121 0 91-18.808 123.547-52.924 6.52-6.827 17.323-7.083 24.132-0.58 6.827 6.502 7.083 17.306 0.58 24.132-39.066 40.96-91.717 63.506-148.259 63.506-112.931 0-204.802-91.871-204.802-204.802 0-12.578 1.161-25.174 3.396-37.359 1.519-8.226 8.704-13.978 16.777-13.978zM665.597 379.737c4.369 0 8.738 1.69 12.066 5.001 6.673 6.69 6.673 17.459 0 24.132l-170.583 170.566c-1.587 1.621-3.516 2.918-5.666 3.789-1.792 0.751-3.669 1.007-5.581 1.126-0.307 0.017-0.563 0.188-0.887 0.188h-0.017c-2.236 0-4.454-0.461-6.554-1.331-1.297-0.529-2.338-1.451-3.447-2.287-0.683-0.495-1.468-0.768-2.082-1.382l-170.668-170.668c-6.69-6.673-6.69-17.442 0-24.132 6.673-6.673 17.459-6.673 24.132 0l141.552 141.569v-573.24c0-9.421 7.663-17.067 17.084-17.067s17.067 7.646 17.067 17.067v573.172l141.501-141.501c3.345-3.311 7.714-5.001 12.083-5.001zM937.258 649.505c-7.714 5.427-18.364 3.584-23.791-4.079-5.427-7.697-3.601-18.347 4.096-23.808 45.278-32 72.312-84.122 72.312-139.487 0-94.089-76.545-170.668-170.668-170.668h-221.869c-9.421 0-17.067-7.646-17.067-17.067 0-9.404 7.646-17.067 17.067-17.067h221.869c112.931 0 204.802 91.871 204.802 204.802 0 66.424-32.427 128.991-86.751 167.374zM392.537 311.47h-256.002c-56.474 0-102.401 45.927-102.401 102.401 0 56.491 45.927 102.401 102.401 102.401 9.438 0 17.067 7.646 17.067 17.067s-7.629 17.067-17.067 17.067c-75.282 0-136.534-61.253-136.534-136.534s61.253-136.534 136.534-136.534h256.002c9.421 0 17.067 7.646 17.067 17.067s-7.646 17.067-17.067 17.067z" />
<glyph unicode="&#xe909;" glyph-name="icon2-planos" d="M172.695 12.948h-126.887c-12.903 0-23.402 10.499-23.402 23.402 0 12.914 10.499 23.402 23.402 23.402 10.905 0 20.591-6.344 24.113-15.793 1.885-5.035 6.909-7.914 12.508-7.089 5.328 0.96 9.178 5.599 9.178 11.029 0 19.259 15.68 34.928 34.95 34.928s34.939-15.669 34.939-34.928c0-6.175 5.024-11.199 11.199-11.199 6.548 0 11.876-5.34 11.876-11.887 0-6.536-5.328-11.865-11.876-11.865zM183.273 57.427l-0.226 0.26c-4.741 27.545-28.504 47.549-56.49 47.549-22.025 0-41.758-12.316-51.489-32.128l-0.181-0.361-0.327 0.226c-1.705 1.23-3.624 2.382-5.814 3.522l-0.203 190.568c0 6.175-5.024 11.199-11.199 11.199s-11.199-5.024-11.199-11.199v-184.901h-0.339c-25.265 0-45.799-20.546-45.799-45.81 0-25.253 20.534-45.799 45.799-45.799h126.887c18.898 0 34.273 15.364 34.273 34.262 0 14.879-9.517 27.985-23.695 32.614zM645.643 12.948h-126.887c-6.536 0-11.876 5.328-11.876 11.865 0 6.548 5.34 11.887 11.876 11.887 6.175 0 11.199 5.012 11.199 11.187 0 19.27 15.68 34.939 34.939 34.939 19.27 0 34.939-15.669 34.939-34.939 0-5.43 3.883-10.058 9.133-11.007 5.407-1.016 10.634 1.964 12.565 7.101 3.522 9.438 13.208 15.771 24.113 15.771 12.914 0 23.402-10.487 23.402-23.402 0-12.903-10.487-23.402-23.402-23.402zM645.643 82.161l-0.339 184.901c0 6.175-5.024 11.199-11.187 11.199-6.186 0-11.221-5.024-11.221-11.199v-190.466l-0.158-0.090c-2.28-1.185-4.199-2.348-5.836-3.533l-0.327-0.237-0.181 0.361c-9.754 19.823-29.475 32.139-51.5 32.139-27.985 0-51.737-20.004-56.49-47.549l-0.248-0.271c-14.156-4.617-23.673-17.724-23.673-32.602 0-3.737 0.7-7.473 2.111-11.402l0.181-0.463h-198.718c-6.175 0-11.199-5.024-11.199-11.199s5.024-11.187 11.199-11.187h357.587c12.226 0 23.729 4.753 32.377 13.411 8.67 8.67 13.434 20.162 13.434 32.377 0 25.265-20.557 45.81-45.81 45.81zM322.317 451.614c0 12.914 10.499 23.413 23.413 23.413 12.892 0 23.402-10.499 23.402-23.413s-10.51-23.402-23.402-23.402c-12.914 0-23.413 10.487-23.413 23.402zM391.518 451.614c0 25.253-20.534 45.81-45.788 45.81-25.265 0-45.81-20.557-45.81-45.81s20.546-45.799 45.81-45.799c25.253 0 45.788 20.546 45.788 45.799zM553.691 220.579h-69.867v46.804h69.867zM553.691 151.367h-69.867v46.815h69.867zM564.889 289.791h-92.275c-6.175 0-11.199-5.012-11.199-11.187v-127.237h-11.887c-6.175 0-11.187-5.012-11.187-11.187 0-6.186 5.012-11.21 11.187-11.21h138.436c6.175 0 11.199 5.024 11.199 11.21 0 6.175-5.024 11.187-11.199 11.187h-11.876v127.237c0 6.175-5.024 11.187-11.199 11.187zM392.205 174.444h-11.876c-6.175 0-11.199-5.024-11.199-11.199s5.024-11.199 11.199-11.199h11.876v-92.964h-92.953v208.303h92.953zM460.729 47.895c0 6.175-5.024 11.187-11.199 11.187h-34.928v219.524c0 6.164-5.024 11.187-11.199 11.187h-115.35c-6.175 0-11.199-5.024-11.199-11.187v-219.524h-34.95c-6.175 0-11.199-5.012-11.199-11.187v-46.149c0-6.175 5.024-11.187 11.199-11.187s11.21 5.012 11.21 11.187v34.95h196.415c6.175 0 11.199 5.024 11.199 11.199zM207.641 220.579h-69.878v46.804h69.878zM207.641 151.367h-69.878v46.815h69.878zM218.84 289.791h-92.287c-6.164 0-11.199-5.012-11.199-11.187v-127.237h-11.865c-6.175 0-11.21-5.012-11.21-11.187 0-6.186 5.035-11.21 11.21-11.21h138.413c6.186 0 11.21 5.024 11.21 11.199s-5.024 11.199-11.21 11.199h-11.865v127.237c0 6.175-5.024 11.187-11.199 11.187zM894.263 721.599h-85.276l41.080 119.707c1.626 4.764-0.192 10.092-4.358 12.7-4.177 2.63-9.539 1.851-12.847-1.885l-162.684-183.377c-2.766-3.116-3.488-7.631-1.863-11.515 1.648-3.883 5.328-6.39 9.404-6.39h55.44c5.667 0 10.262 4.775 10.262 10.668s-4.595 10.668-10.262 10.668h-32.015l112.686 127.023-29.058-84.678c-1.118-3.274-0.587-6.886 1.332-9.731 1.919-2.834 5.103-4.527 8.433-4.527h76.313l-112.686-127.011 29.080 84.667c1.118 3.274 0.643 6.909-1.287 9.742-1.919 2.834-5.046 4.516-8.388 4.516h-0.102c-4.809 0-8.828-3.454-9.923-8.128l-45.618-132.904c-1.637-4.775 0.192-10.092 4.358-12.711 1.648-1.039 3.488-1.547 5.306-1.547 2.788 0 5.543 1.185 7.552 3.443l162.662 183.377c2.766 3.104 3.5 7.631 1.863 11.515-1.648 3.872-5.328 6.378-9.404 6.378zM785.994 483.022c-112.223 0-203.2 90.977-203.2 203.2s90.977 203.2 203.2 203.2c112.223 0 203.2-90.977 203.2-203.2s-90.977-203.2-203.2-203.2zM785.994 912c-124.494 0-225.778-101.284-225.778-225.778s101.284-225.778 225.778-225.778c124.494 0 225.778 101.284 225.778 225.778s-101.284 225.778-225.778 225.778zM469.905 566.565h67.733c6.243 0 11.289 5.046 11.289 11.289s-5.046 11.289-11.289 11.289h-67.733c-6.243 0-11.289-5.046-11.289-11.289s5.046-11.289 11.289-11.289zM680.325 443.511c-6.243 0-11.289-5.046-11.289-11.289v-90.311c0-0.011 0.011-0.023 0.011-0.023v-24.723l-315.389 315.389c-4.233 4.222-11.65 4.245-15.917 0.023l-315.344-315.4v250.139h127.226c6.175 0 11.199 5.012 11.199 11.187v46.149c0 6.175-5.024 11.187-11.199 11.187h-11.865v23.763h69.878v-23.763h-11.865c-6.175 0-11.21-5.012-11.21-11.187v-46.149c0-6.175 5.035-11.187 11.21-11.187h34.6c6.175 0 11.199 5.012 11.199 11.187s-5.024 11.199-11.199 11.199h-23.413v23.752h11.876c6.175 0 11.199 5.024 11.199 11.199v46.138c0 6.175-5.024 11.199-11.199 11.199h-92.275c-6.175 0-11.199-5.024-11.199-11.199v-46.138c0-6.175 5.024-11.199 11.199-11.199h11.876v-23.752h-127.226c-2.924 0-5.802-1.163-7.914-3.251-2.088-2.088-3.296-4.99-3.296-7.947l0.045-288.375c0-4.504 2.698-8.557 6.954-10.363 1.355-0.553 2.788-0.824 4.211-0.824 2.946 0 5.848 1.151 7.947 3.262l326.52 326.644 326.633-326.621c3.161-3.195 7.959-4.154 12.282-2.416 4.166 1.75 6.852 5.791 6.852 10.318v50.935c0.023 0.294 0.169 0.553 0.169 0.847v90.311c0 6.243-5.046 11.289-11.289 11.289z" />
<glyph unicode="&#xe90a;" glyph-name="icon2-texto-institucional" horiz-adv-x="956" d="M296.598 414.968c-27.255 0-49.425 22.238-49.425 49.544h-32.973c0-45.534 36.966-82.585 82.397-82.585s82.397 37.051 82.397 82.585h-32.973c0-27.306-22.169-49.544-49.425-49.544zM659.112 414.968c-27.255 0-49.425 22.238-49.425 49.544h-32.956c0-45.534 36.949-82.585 82.38-82.585s82.397 37.051 82.397 82.585h-32.973c0-27.306-22.169-49.544-49.425-49.544zM955.727 464.517c0 58.112-43.059 106.239-98.884 114.278v17.852c0 25.685-25.276 46.336-77.329 63.146l-10.12-31.402c44.714-14.472 54.494-27.818 54.494-31.744 0-22.408-122.128-66.065-346.024-66.065-223.913 0-346.041 43.656-346.041 66.065 0 3.925 9.779 17.271 54.494 31.744l-10.12 31.402c-52.036-16.811-77.346-37.461-77.346-63.146v-17.852c-55.808-8.038-98.849-56.166-98.849-114.278 0-58.248 43.247-106.461 99.242-114.346 5.717-143.82 91.477-267.313 213.827-326.79v-87.381h32.956v73.284c41.096-15.326 85.503-23.723 131.839-23.723s90.726 8.397 131.822 23.723v-73.284h32.938v87.381c122.35 59.477 208.144 182.971 213.861 326.79 55.978 7.885 99.242 56.098 99.242 114.346zM32.956 464.517c0 39.867 28.348 73.233 65.894 80.913v-161.825c-37.546 7.68-65.894 41.045-65.894 80.913zM477.863 18.585c-190.821 0-346.041 155.596-346.041 346.826v187.015c71.782-42.359 244.171-54.869 346.041-54.869s274.225 12.51 346.024 54.869v-187.015c0-191.231-155.203-346.826-346.024-346.826zM856.843 383.604v161.825c37.563-7.68 65.911-41.028 65.911-80.913s-28.348-73.233-65.911-80.913zM280.115 728.765c-36.352 0-65.911-29.61-65.911-66.048s29.559-66.065 65.911-66.065c36.352 0 65.911 29.628 65.911 66.065 0 13.278-4.011 25.617-10.769 35.976l92.074 131.856c5.649-1.57 11.452-2.679 17.561-2.679 12.766 0 24.559 3.806 34.662 10.103l72.755-60.774c-5.256-9.506-8.55-20.292-8.55-31.914 0-36.437 29.576-66.048 65.928-66.048 36.335 0 65.911 29.61 65.911 66.048 0 6.571-1.246 12.766-3.038 18.739l144.247 111.223-24.525-57.378 30.276-13.005 60.757 142.079-160.34-20.104 4.079-32.751 71.731 8.977-143.257-110.438c-11.861 11.52-28.023 18.722-45.841 18.722-12.766 0-24.559-3.823-34.662-10.103l-72.755 60.791c5.256 9.472 8.55 20.258 8.55 31.897 0 36.437-29.576 66.065-65.928 66.065s-65.911-29.628-65.911-66.065c0-18.347 7.526-34.952 19.609-46.933l-88.012-126.054c-9.165 4.83-19.422 7.816-30.464 7.816zM642.626 745.286c0-18.227-14.763-33.041-32.938-33.041-18.193 0-32.956 14.814-32.956 33.041 0 18.21 14.763 33.024 32.956 33.024 18.176 0 32.938-14.814 32.938-33.024zM444.893 926.959c18.176 0 32.956-14.814 32.956-33.024 0-18.227-14.78-33.041-32.956-33.041s-32.956 14.814-32.956 33.041c0 18.21 14.78 33.024 32.956 33.024zM280.115 629.677c-18.176 0-32.956 14.831-32.956 33.041s14.78 33.024 32.956 33.024c18.176 0 32.956-14.814 32.956-33.024s-14.78-33.041-32.956-33.041zM197.73 910.446h32.956v-33.041h-32.956zM197.73 844.381h32.956v-33.041h-32.956zM230.685 877.422h32.956v-33.041h-32.956zM164.774 877.422h32.956v-33.041h-32.956zM444.905 728.772h32.956v-33.024h-32.956zM444.905 662.707h32.956v-33.041h-32.956zM477.86 695.748h32.956v-33.041h-32.956zM411.932 695.748h32.956v-33.041h-32.956zM856.84 778.316h32.973v-33.041h-32.973zM856.84 712.252h32.973v-33.024h-32.973zM889.813 745.275h32.956v-33.041h-32.956zM823.902 745.275h32.956v-33.041h-32.956z" />
<glyph unicode="&#xe90b;" glyph-name="icon2-vantagens" d="M851.821 775.589c4.369-4.54 9.643-6.485 14.711-6.485 5.257 0 10.291 2.082 13.892 5.53 7.083 6.793 9.131 19.354 0.29 28.621-8.841 9.284-21.487 7.851-28.604 1.109s-9.216-19.285-0.444-28.621zM946.347 719.223c-5.854 9.37-18.193 12.203-27.563 6.349-9.37-5.871-12.203-18.193-6.349-27.563 46.814-74.837 71.578-161.28 71.578-250.010 0-260.267-211.746-471.996-472.013-471.996-260.25 0-471.996 211.729-471.996 471.996s211.746 472.013 471.996 472.013c92.109 0 181.35-26.539 258.065-76.732 9.25-6.059 21.641-3.465 27.699 5.769 6.042 9.25 3.465 21.658-5.786 27.699-83.251 54.46-180.070 83.251-279.979 83.251-136.755 0-265.335-53.248-362.035-149.965-96.7-96.7-149.965-225.263-149.965-362.035 0-136.755 53.265-265.318 149.965-362.018 96.7-96.717 225.28-149.982 362.035-149.982s265.335 53.265 362.052 149.982c96.7 96.7 149.948 225.263 149.948 362.018 0 96.239-26.846 190.020-77.653 271.223zM769.396 162.34c7.817-7.799 20.48-7.799 28.279 0 76.305 76.305 118.323 177.766 118.323 285.662 0 54.579-10.889 106.633-30.583 154.163-0.068 0.137-0.102 0.29-0.154 0.444-0.051 0.137-0.137 0.256-0.188 0.358-20.122 48.282-49.357 91.853-85.538 128.546-0.58 0.751-1.178 1.485-1.86 2.167s-1.417 1.28-2.167 1.843c-36.693 36.198-80.265 65.434-128.563 85.572-0.102 0.051-0.222 0.102-0.324 0.154-0.137 0.051-0.29 0.102-0.427 0.154-47.548 19.695-99.601 30.601-154.197 30.601-54.579 0-106.65-10.906-154.18-30.601-0.154-0.068-0.273-0.102-0.427-0.154-0.102-0.051-0.205-0.102-0.324-0.154-48.299-20.139-91.87-49.374-128.563-85.572-0.751-0.563-1.485-1.161-2.167-1.843s-1.297-1.417-1.843-2.167c-36.198-36.71-65.451-80.282-85.572-128.58-0.051-0.085-0.119-0.205-0.171-0.324-0.051-0.137-0.085-0.273-0.137-0.427-19.712-47.531-30.601-99.584-30.601-154.18 0-107.913 42.018-209.357 118.323-285.662 3.908-3.908 9.011-5.871 14.131-5.871 5.137 0 10.24 1.963 14.148 5.871 7.817 7.799 7.817 20.463 0 28.279-29.508 29.525-53.316 63.215-70.895 99.755l30.071 12.442c10.189 4.233 15.053 15.94 10.82 26.146s-15.923 15.053-26.129 10.82l-30.071-12.442c-11.264 32.119-17.988 65.929-19.849 100.659h97.451c11.025 0 19.985 8.96 19.985 20.002 0 11.059-8.96 20.002-19.985 20.002h-97.451c1.911 35.089 8.823 68.83 20.002 100.608l29.918-12.39c2.509-1.024 5.103-1.536 7.646-1.536 7.851 0 15.292 4.659 18.483 12.356 4.233 10.223-0.614 21.914-10.82 26.129l-29.901 12.39c15.002 31.095 34.304 59.733 57.105 85.163l27.682-27.682c3.908-3.908 9.028-5.854 14.148-5.854s10.223 1.946 14.131 5.854c7.817 7.817 7.817 20.48 0 28.279l-27.682 27.682c25.446 22.818 54.084 42.121 85.18 57.105l12.373-29.884c3.191-7.714 10.65-12.373 18.483-12.373 2.56 0 5.137 0.512 7.646 1.536 10.223 4.233 15.053 15.94 10.837 26.129l-12.39 29.918c31.761 11.196 65.519 18.108 100.608 20.019v-85.453c0-11.042 8.943-20.002 19.985-20.002s20.002 8.96 20.002 20.002v85.453c35.089-1.911 68.847-8.806 100.608-20.019l-12.39-29.918c-4.215-10.189 0.614-21.897 10.837-26.129 2.492-1.024 5.086-1.519 7.629-1.519 7.851 0 15.292 4.659 18.483 12.356l12.39 29.884c31.095-14.985 59.733-34.287 85.18-57.088l-22.818-22.818c-7.817-7.817-7.817-20.48 0-28.279 3.908-3.908 9.028-5.871 14.131-5.871 5.12 0 10.24 1.963 14.148 5.871l22.818 22.801c22.801-25.429 42.103-54.067 57.088-85.163l-29.884-12.373c-10.206-4.233-15.053-15.923-10.82-26.129 3.191-7.697 10.633-12.356 18.483-12.356 2.543 0 5.137 0.495 7.646 1.519l29.918 12.39c11.179-31.761 18.091-65.519 20.002-100.608h-87.45c-11.042 0-20.002-8.943-20.002-20.002 0-11.042 8.96-20.002 20.002-20.002h87.45c-1.877-34.731-8.602-68.54-19.849-100.659l-30.071 12.442c-10.206 4.233-21.914-0.614-26.129-10.803-4.233-10.223 0.614-21.931 10.82-26.146l30.071-12.459c-17.579-36.54-41.387-70.229-70.895-99.755-7.817-7.817-7.817-20.463 0-28.279zM690.173 626.174c-7.817 7.817-20.463 7.817-28.279 0l-121.139-121.139c-8.721 4.437-18.569 6.98-29.013 6.98-35.277 0-64-28.723-64-64 0-10.445 2.526-20.292 6.98-29.013l-7.578-7.578c-7.817-7.817-7.817-20.463 0-28.279 3.891-3.908 9.011-5.871 14.131-5.871s10.24 1.963 14.148 5.871l7.663 7.663c8.636-4.352 18.364-6.793 28.655-6.793 35.294 0 64 28.689 64 64 0 10.291-2.458 20.019-6.793 28.638l121.225 121.242c7.817 7.817 7.817 20.463 0 28.279zM511.758 424.002c-6.485 0-12.373 2.611-16.691 6.793l-0.119 0.154-0.29 0.239c-4.267 4.335-6.895 10.274-6.895 16.828 0 13.227 10.752 23.996 23.996 23.996 13.227 0 23.996-10.769 23.996-23.996 0-13.244-10.769-24.013-23.996-24.013zM426.005 172.206c-5.257 0-10.411-2.133-14.148-5.871-3.703-3.721-5.854-8.841-5.854-14.131 0-5.257 2.15-10.411 5.854-14.131 3.738-3.721 8.892-5.871 14.148-5.871s10.411 2.133 14.148 5.871c3.703 3.721 5.854 8.875 5.854 14.131 0 5.291-2.15 10.411-5.854 14.131-3.738 3.738-8.892 5.871-14.148 5.871zM504.004 172.206c-11.042 0-20.002-8.943-20.002-20.002 0-11.025 8.96-20.002 20.002-20.002h94.003c11.042 0 20.002 8.977 20.002 20.002 0 11.059-8.96 20.002-20.002 20.002z" />
<glyph unicode="&#xe90c;" glyph-name="icon3-planos" d="M579.269 549.498h36.506v70.707h-36.506zM631.732 517.566h-68.403c-8.806 0-15.974 7.168-15.974 15.974v102.605c0 8.806 7.168 15.974 15.974 15.974h68.403c8.789 0 15.957-7.168 15.957-15.974v-102.605c0-8.806-7.168-15.974-15.957-15.974zM255.425-63.995c-8.806 0-15.957 7.168-15.957 15.974v34.202c0 8.806 7.151 15.974 15.957 15.974h478.926c8.806 0 15.974-7.168 15.974-15.974 0-8.789-7.168-15.94-15.974-15.94h-462.951v-18.261c0-8.806-7.168-15.974-15.974-15.974zM408.244 549.498h36.489v70.707h-36.489zM460.69 517.566h-68.42c-8.789 0-15.94 7.168-15.94 15.974v102.605c0 8.806 7.151 15.974 15.94 15.974h68.42c8.806 0 15.957-7.168 15.957-15.974v-102.605c0-8.806-7.151-15.974-15.957-15.974zM15.974 380.738c-8.806 0-15.974 7.151-15.974 15.957v342.085c0 8.806 7.168 15.974 15.974 15.974h205.244c8.806 0 15.974-7.168 15.974-15.974 0-8.789-7.168-15.957-15.974-15.957h-189.287v-326.127c0-8.806-7.151-15.957-15.957-15.957zM852.968 138.993h36.506v70.69h-36.506zM905.414 107.061h-68.403c-8.806 0-15.991 7.168-15.991 15.94v102.656c0 8.772 7.185 15.957 15.991 15.957h68.403c8.789 0 15.957-7.185 15.957-15.957v-102.656c0-8.772-7.168-15.94-15.957-15.94zM84.376 312.322c-29.048 0-52.446-103.561-52.446-189.321 0-28.911 23.535-52.446 52.446-52.446 28.928 0 52.463 23.535 52.463 52.446 0 87.552-22.921 189.321-52.463 189.321zM84.376-63.998c-8.789 0-15.957 7.168-15.957 15.974v88.184l-0.887 0.171c-39.134 7.987-67.516 42.735-67.516 82.671 0 2.236 1.143 221.236 84.361 221.236 83.166 0 84.395-219 84.395-221.218v-0.017c0-39.919-28.399-74.684-67.499-82.671l-0.922-0.171v-88.184c0-8.806-7.168-15.974-15.974-15.974zM187.008 312.322c-8.789 0-15.974 7.168-15.974 15.974v86.665h-36.472v-18.278c0-8.789-7.168-15.94-15.974-15.94-8.789 0-15.94 7.151-15.94 15.94v34.236c0 8.789 7.151 15.957 15.94 15.957h68.42c4.369 0 8.431-1.741 11.452-4.847 2.799-2.697 4.523-6.758 4.523-11.127v-102.605c0-8.806-7.168-15.974-15.974-15.974zM852.968 549.498h36.506v70.707h-36.506zM905.414 517.566h-68.403c-8.806 0-15.991 7.168-15.991 15.974v102.605c0 8.806 7.185 15.974 15.991 15.974h68.403c8.789 0 15.957-7.168 15.957-15.974v-102.605c0-8.806-7.168-15.974-15.957-15.974zM134.562 549.498h36.489v70.707h-36.489zM187.008 517.566h-68.42c-8.789 0-15.94 7.168-15.94 15.974v102.605c0 8.806 7.151 15.974 15.94 15.974h68.42c4.284 0 8.277-1.673 11.298-4.676 3.004-3.004 4.676-7.031 4.676-11.298v-102.605c0-8.806-7.168-15.974-15.974-15.974zM837.010 4.42c-10.069 0-18.261-8.175-18.261-18.227 0-10.069 8.192-18.261 18.261-18.261h136.824c10.052 0 18.244 8.192 18.244 18.261 0 6.4-3.738 12.407-9.728 15.667-5.939 3.243-12.954 3.14-18.381-0.393-4.369-2.85-9.882-3.362-14.746-1.365-4.762 1.963-8.277 6.127-9.472 11.127-3.738 16.162-17.852 27.409-34.338 27.409s-30.601-11.264-34.355-27.392c-1.109-5.018-4.71-9.233-9.574-11.179-4.693-1.946-10.24-1.434-14.66 1.434-3.055 1.946-6.281 2.918-9.813 2.918zM973.834-64h-136.824c-27.682 0-50.176 22.511-50.176 50.193 0 27.648 22.494 50.142 50.176 50.142 2.884 0 5.803-0.239 8.619-0.734l0.751-0.137 0.393 0.7c11.793 21.231 34.253 34.389 58.641 34.389s46.865-13.158 58.624-34.372l0.41-0.717 0.802 0.137c2.782 0.478 5.803 0.546 8.431 0.734 5.786 0 11.554-1.058 17.101-3.14l1.297-0.512v690.143h-189.287c-8.806 0-15.957 7.151-15.957 15.957s7.151 15.974 15.957 15.974h205.244c8.806 0 15.974-7.168 15.974-15.974v-752.59c0-27.682-22.494-50.193-50.176-50.193zM579.269 754.759h36.506v70.707h-36.506zM631.732 722.81h-68.403c-8.806 0-15.974 7.168-15.974 15.974v102.622c0 8.789 7.168 15.957 15.974 15.957h68.403c8.789 0 15.957-7.168 15.957-15.957v-102.622c0-8.806-7.168-15.974-15.957-15.974zM579.269 344.237h36.506v70.724h-36.506zM631.732 312.322h-68.403c-8.806 0-15.974 7.168-15.974 15.974v102.622c0 8.789 7.168 15.957 15.974 15.957h68.403c8.789 0 15.957-7.168 15.957-15.957v-102.622c0-8.806-7.168-15.974-15.957-15.974zM408.244 754.759h36.489v70.707h-36.489zM460.69 722.81h-68.42c-8.789 0-15.94 7.168-15.94 15.974v102.622c0 8.789 7.151 15.957 15.94 15.957h68.42c8.806 0 15.957-7.168 15.957-15.957v-102.622c0-8.806-7.151-15.974-15.957-15.974zM511.992 107.089c-3.618 0-7.219 1.229-10.308 3.686l-2.014 2.065c-2.338 2.987-3.635 6.605-3.635 10.172 0 3.669 1.417 7.492 3.891 10.496l1.809 1.792c5.769 4.591 14.78 4.591 20.548 0l1.809-1.792c2.475-3.004 3.891-6.827 3.891-10.496 0-3.584-1.382-7.339-3.755-10.308l-1.963-1.963c-3.089-2.441-6.673-3.652-10.274-3.652zM408.244 344.237h36.489v70.724h-36.489zM460.69 312.322h-68.42c-8.789 0-15.94 7.168-15.94 15.974v102.622c0 8.789 7.151 15.957 15.94 15.957h68.42c8.806 0 15.957-7.168 15.957-15.957v-102.622c0-8.806-7.151-15.974-15.957-15.974zM597.543 38.637c-8.806 0-15.974 7.168-15.974 15.974v155.068h-139.128v-155.068c0-8.806-7.168-15.974-15.957-15.974-8.806 0-15.957 7.168-15.957 15.974v155.068h-52.463c-8.806 0-15.957 7.168-15.957 15.974 0 8.789 7.151 15.974 15.957 15.974h307.883c8.789 0 15.957-7.185 15.957-15.974 0-8.806-7.168-15.974-15.957-15.974h-52.446v-155.068c0-8.806-7.151-15.974-15.957-15.974zM852.968 344.237h36.506v70.724h-36.506zM905.414 312.322h-68.403c-8.806 0-15.991 7.168-15.991 15.974v102.622c0 8.789 7.185 15.957 15.991 15.957h68.403c8.789 0 15.957-7.168 15.957-15.957v-102.622c0-8.806-7.168-15.974-15.957-15.974zM734.359 38.637c-8.789 0-15.974 7.168-15.974 15.974v873.473h-412.775v-873.473c0-8.806-7.168-15.974-15.957-15.974s-15.974 7.168-15.974 15.974v889.431c0 8.789 7.185 15.957 15.974 15.957h444.707c4.267 0 8.26-1.673 11.298-4.676 2.953-2.85 4.676-6.929 4.676-11.281v-889.431c0-8.806-7.168-15.974-15.974-15.974z" />
<glyph unicode="&#xe90d;" glyph-name="icon3-texto-institucional" horiz-adv-x="956" d="M296.597 414.966c-27.255 0-49.425 22.238-49.425 49.544h-32.972c0-45.533 36.966-82.585 82.397-82.585s82.397 37.051 82.397 82.585h-32.972c0-27.306-22.169-49.544-49.425-49.544zM659.11 414.966c-27.255 0-49.425 22.238-49.425 49.544h-32.955c0-45.533 36.949-82.585 82.38-82.585s82.397 37.051 82.397 82.585h-32.972c0-27.306-22.169-49.544-49.425-49.544zM955.724 464.515c0 58.111-43.076 106.239-98.883 114.277v17.852c0 37.017-54.527 64.921-162.063 82.909l-5.41-32.597c111.683-18.671 134.518-44.441 134.518-50.312 0-22.408-122.128-66.064-346.023-66.064-223.912 0-346.040 43.656-346.040 66.064 0 5.871 22.835 31.641 134.518 50.312l-5.393 32.597c-107.536-17.988-162.081-45.892-162.081-82.909v-17.852c-55.807-8.038-98.866-56.166-98.866-114.277 0-58.265 43.264-106.461 99.242-114.346 5.717-143.819 91.476-267.313 213.826-326.789v-87.38h32.955v73.284c41.096-15.326 85.503-23.722 131.839-23.722s90.725 8.397 131.822 23.722v-73.284h32.955v87.38c122.35 59.477 208.126 182.97 213.843 326.789 55.961 7.885 99.242 56.081 99.242 114.346zM32.955 464.515c0 39.867 28.347 73.232 65.911 80.912v-161.825c-37.563 7.68-65.911 41.045-65.911 80.912zM477.862 18.585c-190.803 0-346.040 155.578-346.040 346.825v187.015c71.799-42.359 244.17-54.869 346.040-54.869s274.224 12.51 346.023 54.869v-187.015c0-191.247-155.22-346.825-346.023-346.825zM856.841 383.603v161.825c37.563-7.68 65.911-41.028 65.911-80.912s-28.347-73.232-65.911-80.912zM477.853 563.614c109.038 0 197.732 88.899 197.732 198.176 0 109.311-88.695 198.21-197.732 198.21s-197.732-88.899-197.732-198.21c0-109.277 88.695-198.176 197.732-198.176zM342.909 856.304c6.554-6.263 16.367-14.080 30.139-21.504-5.12-16.793-8.516-35.652-9.779-56.49h-49.356c2.867 28.859 13.227 55.449 28.996 77.994zM641.794 778.31h-49.356c-1.263 20.838-4.659 39.697-9.779 56.49 13.773 7.407 23.586 15.223 30.139 21.504 15.769-22.545 26.129-49.134 28.996-77.994zM612.798 667.293c-6.554 6.263-16.367 14.063-30.139 21.504 5.12 16.793 8.516 35.669 9.779 56.49h49.356c-2.867-28.842-13.227-55.449-28.996-77.994zM494.323 678.693c18.142-1.126 33.28-4.096 45.994-7.936-13.602-27.87-31.624-47.052-45.994-59.17zM494.323 711.734v33.553h65.194c-1.143-15.974-3.652-30.6-7.424-43.741-16.025 5.103-35.106 8.909-57.77 10.189zM494.323 778.31v33.57c22.63 1.263 41.676 5.069 57.685 10.155 3.806-13.124 6.349-27.767 7.492-43.724zM494.323 844.904v66.867c14.285-12.168 32.17-31.351 45.755-58.999-12.663-3.789-27.733-6.741-45.755-7.868zM461.384 844.904c-18.125 1.126-33.28 4.113-45.977 7.936 13.585 27.87 31.607 47.052 45.977 59.187zM461.384 811.88v-33.57h-65.177c1.126 15.991 3.635 30.617 7.407 43.741 16.043-5.086 35.106-8.909 57.77-10.172zM461.384 745.286v-33.553c-22.613-1.28-41.659-5.069-57.685-10.172-3.806 13.141-6.349 27.784-7.475 43.724zM461.384 678.693v-66.884c-14.302 12.203-32.17 31.368-45.755 59.016 12.68 3.806 27.733 6.741 45.755 7.868zM418.087 608.055c-20.121 7.868-38.297 19.592-53.674 34.27 3.976 4.062 10.632 9.779 20.65 15.582 9.694-20.224 21.35-36.693 33.024-49.851zM570.644 657.906c10.018-5.786 16.674-11.52 20.668-15.582-15.394-14.677-33.57-26.402-53.691-34.27 11.673 13.158 23.364 29.627 33.024 49.851zM570.644 865.691c-9.677 20.224-21.35 36.71-33.024 49.851 20.121-7.868 38.297-19.575 53.691-34.27-3.994-4.045-10.649-9.779-20.668-15.582zM385.063 865.691c-10.018 5.786-16.674 11.537-20.65 15.582 15.377 14.694 33.553 26.402 53.674 34.27-11.673-13.141-23.33-29.61-33.024-49.851zM363.269 745.286c1.263-20.821 4.659-39.697 9.779-56.49-13.773-7.424-23.586-15.223-30.139-21.504-15.769 22.562-26.129 49.169-28.996 77.994zM708.548 778.313h32.972v-33.041h-32.972zM774.459 778.313h32.955v-33.041h-32.955zM214.2 778.313h32.955v-33.041h-32.955zM148.306 778.313h32.955v-33.041h-32.955z" />
<glyph unicode="&#xe90e;" glyph-name="icon3-vantagens" d="M593.925 527.548v380.757c106.564-6.81 206.797-55.723 277.828-136.772 59.631-68.062 94.942-153.788 100.437-243.985zM909.812 805.154c-86.477 98.475-210.79 154.846-341.248 154.846-13.961 0-25.378-11.486-25.378-25.532v-432.657c0-14.046 11.418-25.532 25.378-25.532h430.063c13.961 0 25.378 11.486 25.378 25.532-0.222 111.906-40.602 219.733-114.193 303.343zM885.299 419.499c-13.961 0-25.378-11.503-25.378-25.515 0-224.444-181.419-407.159-404.702-407.159-223.266 0-404.48 182.716-404.48 407.159 0 224.614 181.419 407.108 404.48 407.108 13.961 0 25.378 11.486 25.378 25.532s-11.418 25.532-25.378 25.532c-121.583 0-235.947-47.65-321.809-134.229-86.050-86.579-133.41-201.643-133.41-323.942 0-122.317 47.36-237.397 133.41-323.772 86.050-86.562 200.448-134.212 322.031-134.212s235.964 47.65 322.014 134.212c86.067 86.579 133.427 201.66 133.427 323.977-0.222 14.029-11.639 25.31-25.583 25.31zM455.224 744.098c-13.943 0-25.361-11.486-25.361-25.532 0-14.029 11.418-25.515 25.361-25.515 13.961 0 25.378 11.486 25.378 25.515 0 14.046-11.196 25.532-25.378 25.532zM455.224 635.815c-13.943 0-25.361-11.469-25.361-25.515 0-14.029 11.418-25.532 25.361-25.532 13.961 0 25.378 11.503 25.378 25.532 0 14.046-11.196 25.515-25.378 25.515zM455.224 527.765c-13.943 0-25.361-11.486-25.361-25.515 0-14.046 11.418-25.532 25.361-25.532 13.961 0 25.378 11.486 25.378 25.532 0 14.029-11.196 25.515-25.378 25.515zM437.466 412.049c-4.642-4.676-7.407-11.264-7.407-18.074s2.765-13.414 7.407-18.074c4.642-4.693 11.213-7.458 17.971-7.458s13.312 2.765 17.971 7.458c4.642 4.659 7.407 11.264 7.407 18.074s-2.765 13.397-7.407 18.074c-4.659 4.676-11.213 7.458-17.971 7.458s-13.329-2.56-17.971-7.458zM695.634 393.982c0 14.012-11.418 25.515-25.361 25.515-13.961 0-25.378-11.503-25.378-25.515 0-14.046 11.418-25.532 25.378-25.532 13.943 0 25.361 11.486 25.361 25.532zM588.216 393.982c0 14.012-11.418 25.515-25.361 25.515-13.961 0-25.378-11.503-25.378-25.515 0-14.046 11.418-25.532 25.378-25.532 13.943 0 25.361 11.486 25.361 25.532zM803.258 393.982c0 14.012-11.418 25.515-25.378 25.515s-25.378-11.503-25.378-25.515c0-14.046 11.418-25.532 25.378-25.532s25.378 11.486 25.378 25.532z" />
<glyph unicode="&#xe90f;" glyph-name="icon4-vantagens" d="M835.167 90.973c0.614-0.102 1.229-0.102 1.877-0.102zM327.421 270.172c-7.168 7.253-18.79 7.253-25.941 0l-64.699-65.809-64.717 65.809c-7.151 7.253-18.671 7.253-25.822 0-7.253-7.287-7.253-19.012 0-26.283l64.717-65.809-64.717-65.809c-7.253-7.373-7.253-19.098 0-26.368 3.482-3.618 8.209-5.427 12.868-5.427 4.727 0 9.37 1.809 12.954 5.427l64.717 65.826 64.699-65.826c3.567-3.618 8.328-5.427 12.954-5.427 4.762 0 9.387 1.809 12.988 5.427 7.134 7.27 7.134 18.995 0 26.368l-64.734 65.809 64.734 65.809c7.134 7.27 7.134 18.995 0 26.283zM971.567 116.906l-46.472-47.274c-64.802-65.894-134.604-88.9-213.366-70.434-68.795 16.179-143.342 64.734-221.558 144.179l-15.104 15.343c0.614 6.827 0.905 13.175 0.905 19.371 0 133.427-106.82 241.97-238.045 241.97-6.059 0-12.339-0.273-18.944-0.922-76.936 78.814-123.972 153.889-139.775 223.35-18.244 80.059 4.454 150.971 69.342 216.968l46.404 47.155c16.794 17.101 42.172 21.026 63.078 9.745 60.262-32.444 132.846-157.337 133.461-158.429 8.226-14.728 11.349-29.986 8.328-40.909-1.775-6.724-5.922-11.81-12.51-15.548l-2.765-1.894c-15.582-13.278-52.753-45.363-60.535-57.002-11.179-16.913-18.671-33.451-22.528-49.63-13.056 26.351-23.586 56.9-26.999 90.794-1.058 10.274-10.001 17.459-20.104 16.64-10.086-1.092-17.34-10.257-16.35-20.463 13.21-129.416 112.179-213.674 116.462-217.241 0.444-0.358 0.973-0.529 1.536-0.802l194.132-197.529c0.785-0.802 1.673-1.553 2.475-2.372 0.649-1.007 1.092-2.099 1.963-2.901 3.43-3.55 86.084-85.077 212.308-98.355 0.614-0.068 1.229-0.068 1.877-0.068 9.284 0 17.254 7.083 18.244 16.623 1.041 10.274-6.281 19.371-16.367 20.446-38.724 4.079-72.96 15.616-101.563 29.013 14.046 4.25 28.279 11.435 42.718 21.367 11.452 7.868 43.008 45.687 56.064 61.61l1.894 2.816c3.755 6.639 8.721 10.82 15.275 12.629 10.803 3.089 25.839-0.102 40.038-8.346 1.229-0.734 124.057-74.444 155.972-135.816 11.059-21.265 7.304-47.104-9.489-64.085zM237.925-26.709c-111.001 0-201.266 91.801-201.266 204.799 0 104.618 77.585 191.060 177.322 203.144h0.358c2.765 0.375 5.205 0.563 7.782 0.734 5.274 0.461 10.445 0.819 15.804 0.819 111.103 0 201.386-91.818 201.386-204.697 0-5.547-0.341-11.025-0.802-16.367-0.188-2.543-0.375-5.001-0.7-7.714-11.725-101.546-96.819-180.718-199.884-180.718zM1013.397 198.433c-36.71 70.639-164.385 147.268-170 150.63-23.415 13.551-47.65 17.732-68.096 12.1-15.462-4.352-28.092-14.37-36.574-28.825-18.654-22.733-41.83-49.271-47.445-53.35-43.281-29.901-77.772-26.368-115.217 11.725l-210.226 213.776c-37.444 38.093-40.857 73.096-11.537 117.077 4.113 5.82 30.14 29.372 52.463 48.367 14.302 8.636 24.047 21.367 28.348 37.171 5.632 20.548 1.246 45.824-11.981 69.461-3.14 5.461-78.472 135.338-147.933 172.697-35.311 18.91-77.926 12.459-106.086-16.282l-46.489-47.155c-73.472-74.718-100.096-159.453-79.104-251.715 16.077-70.622 60.808-145.51 132.3-222.685-101.085-27.921-175.82-121.804-175.82-233.334 0-133.461 106.717-242.090 237.925-242.090 109.516 0 201.659 75.639 229.358 178.192 82.056-82.739 161.501-133.717 236.236-151.261 20.122-4.727 39.68-7.1 58.982-7.1 68.113 0 131.293 29.269 188.5 87.535l46.506 47.172c28.143 28.723 34.56 72.106 15.889 107.895z" />
<glyph unicode="&#xe910;" glyph-name="icon5-vantagens" d="M967.619 90.329h-903.111c-11.835 0-21.503 9.719-21.503 21.606v86.389c0 59.623 48.166 108.012 107.513 108.012h731.090c59.347 0 107.513-48.39 107.513-108.012v-86.389c0-11.887-9.685-21.606-21.503-21.606zM494.561 856.889c0 6.692 6.021 11.869 12.902 10.579 5.161-1.084 8.601-5.832 8.601-11.009v-506.946h-21.503zM881.608 349.513h-322.54v506.293c0 27.644-22.363 52.914-49.68 54.858-31.6 2.374-57.834-22.672-57.834-53.774v-507.376h-301.037c-83 0-150.519-67.811-150.519-151.189v-86.389c0-35.849 28.814-64.8 64.508-64.8h21.503v-42.541c0-10.803 7.741-20.522 18.269-22.036 13.349-1.944 24.737 8.429 24.737 21.399v43.177h795.598v-42.541c0-10.803 7.741-20.522 18.286-22.036 13.332-1.944 24.719 8.429 24.719 21.399v43.177c35.694 0 64.508 28.951 64.508 64.8v86.389c0 83.379-67.518 151.189-150.519 151.189zM631.54 613.247c9.238-7.552 22.776-6.055 30.31 3.234 35.282 43.848 35.282 112.76 0 156.608-7.535 9.272-21.073 10.786-30.31 3.217-9.255-7.552-10.751-21.159-3.217-30.431 22.346-27.867 22.346-74.743 0-102.611-7.535-8.859-6.038-22.466 3.217-30.018zM716.257 571.35c8.601-8.223 22.139-7.999 30.327 0.43 65.144 67.828 65.144 178.197 0 246.007-8.188 8.635-21.95 8.859-30.327 0.654-8.601-8.205-8.825-22.036-0.654-30.448 49.25-51.193 49.25-134.779 0-185.972-8.171-8.653-7.947-22.26 0.654-30.671zM801.41 485.81c8.171-8.635 21.709-9.289 30.31-1.067 59.777 56.148 92.891 130.667 92.891 210.141 0 79.491-32.89 154.217-92.891 210.158-8.601 8.429-22.139 8.223-30.31-0.413-8.395-8.653-8.188-22.26 0.413-30.465l0.654-0.654c50.953-47.719 79.13-111.229 79.13-178.627 0-67.381-28.177-130.874-79.13-178.61-8.807-7.999-9.255-21.812-1.067-30.465zM365.545 608.492c11.818 0 21.503 9.719 21.503 21.606 0 4.971-1.72 9.719-4.731 13.607-22.363 27.867-22.363 74.743 0 102.593 7.517 9.289 6.021 22.896-3.234 30.448-9.238 7.569-22.776 6.055-30.31-3.234-35.264-43.848-35.264-112.743 0-156.591 4.094-5.401 10.321-8.429 16.772-8.429zM264.046 571.988c8.188-8.635 21.933-8.859 30.327-0.636 8.377 8.188 8.807 22.019 0.654 30.448-49.25 51.193-49.25 134.779 0 185.972 8.154 8.635 7.947 22.242-0.654 30.448s-22.139 7.999-30.327-0.654c-65.144-67.381-65.144-177.749 0-245.577zM215.026 478.905c11.818 0 21.503 9.702 21.503 21.606 0 6.038-2.58 11.663-6.881 15.757-50.953 47.959-79.13 111.246-79.13 178.627 0 67.398 28.177 130.891 79.13 178.61 8.601 8.446 8.601 22.053 0.43 30.465-7.965 8.205-21.073 8.635-29.674 1.067-60.001-55.924-92.891-130.65-92.891-210.141 0-79.474 32.89-154.217 92.891-210.158 3.87-3.681 9.255-5.832 14.622-5.832zM193.524 241.318c23.756 0 43.005-19.352 43.005-43.212 0-23.842-19.249-43.177-43.005-43.177s-43.005 19.335-43.005 43.177c0 23.859 19.249 43.212 43.005 43.212zM322.54 241.318c23.756 0 43.005-19.352 43.005-43.212 0-23.842-19.249-43.177-43.005-43.177s-43.005 19.335-43.005 43.177c0 23.859 19.249 43.212 43.005 43.212z" />
<glyph unicode="&#xe911;" glyph-name="icon6-vantagens" d="M918.67 882h-207.821c-9.882 0-17.903-7.936-17.903-17.749 0-9.796 8.021-17.749 17.903-17.749h207.821c9.882 0 17.903 7.953 17.903 17.749 0 9.813-8.021 17.749-17.903 17.749zM918.67 719.766h-118.511c-9.882 0-17.886-7.953-17.886-17.749s8.004-17.749 17.886-17.749h118.511c9.882 0 17.903 7.953 17.903 17.749s-8.021 17.749-17.903 17.749zM739.053 719.766h-28.194c-9.882 0-17.903-7.953-17.903-17.749s8.021-17.749 17.903-17.749h28.194c9.882 0 17.886 7.953 17.886 17.749s-8.004 17.749-17.886 17.749zM918.67 800.884h-18.551c-9.882 0-17.903-7.953-17.903-17.749s8.021-17.749 17.903-17.749h18.551c9.882 0 17.903 7.953 17.903 17.749s-8.021 17.749-17.903 17.749zM710.854 765.384h122.47c9.882 0 17.903 7.953 17.903 17.749s-8.021 17.749-17.903 17.749h-122.47c-9.882 0-17.903-7.953-17.903-17.749s8.021-17.749 17.903-17.749zM948.519 960h-267.52c-41.609 0-75.486-33.587-75.486-74.889v-198.929c0-41.284 33.877-74.889 75.486-74.889h35.516l-1.98-45.722c-0.29-6.639 3.191-12.868 8.994-16.179 2.765-1.553 5.82-2.338 8.892-2.338 3.379 0 6.758 0.939 9.711 2.85l95.676 61.389h110.711c41.609 0 75.486 33.604 75.486 74.889v198.929c0 41.301-33.877 74.889-75.486 74.889zM988.216 686.182c0-21.709-17.818-39.373-39.697-39.373h-116.002c-3.447 0-6.81-0.99-9.711-2.85l-71.014-45.568 1.297 29.901c0.205 4.847-1.587 9.54-4.966 13.039-3.362 3.499-8.038 5.478-12.919 5.478h-54.204c-21.879 0-39.697 17.664-39.697 39.373v198.929c0 21.726 17.818 39.39 39.697 39.39h267.52c21.879 0 39.697-17.664 39.697-39.39zM17.903-64h580.642c9.916 0 17.903 7.953 17.903 17.749v109.158c0 45.141-17.033 88.201-47.957 121.259-21.658 23.142-48.742 39.902-78.558 49.033 10.462 10.82 19.49 22.938 26.846 36.096h8.482c44.749 0 81.152 36.13 81.152 80.521v202.957c0 137.745-112.947 249.805-251.802 249.805h-92.774c-138.854 0-251.836-112.060-251.836-249.805v-165.001c0-28.228 23.159-51.183 51.627-51.183 5.7 0 11.23 0.939 16.486 2.714 3.447-40.124 20.617-77.449 48.333-106.138-29.781-9.148-56.849-25.873-78.49-49.033-30.925-33.041-47.957-76.1-47.957-121.225v-109.158c0-9.796 8.021-17.749 17.903-17.749zM308.241 113.698l45.585-24.354-45.585-45.21-45.602 45.21zM202.803 97.741l14.66 83.951 58.027-19.371c4.847-1.621 9.813-2.85 14.848-3.738v-14.114zM326.127 144.469v14.114c5.018 0.887 9.984 2.116 14.831 3.738l58.027 19.388 14.66-83.985zM580.676 62.908v-91.409h-254.549v40.192l60.604 60.092 42.359-22.613c2.645-1.417 5.564-2.116 8.482-2.116 3.686 0 7.356 1.109 10.445 3.328 5.564 3.994 8.346 10.752 7.185 17.442l-22.016 126.020c7.219 3.14 14.199 6.741 20.873 10.769 71.441-8.499 126.618-69.649 126.618-141.705zM503.211 497.34l-72.943 101.274c-3.84 5.308-10.257 8.107-16.794 7.287-6.519-0.802-12.066-5.103-14.455-11.179-14.882-38.025-40.704-70.281-74.633-93.321-33.946-23.040-73.609-35.226-114.739-35.226h-96.393v79.428c0 87.535 71.782 158.737 160.017 158.737h69.922c88.218 0 160.017-71.202 160.017-158.737zM531.951 305.357c3.26 11.042 5.359 22.374 6.332 33.929 5.205-1.741 10.752-2.697 16.538-2.697 4.915 0 9.711 0.7 14.336 2.014-4.506-17.306-19.115-30.566-37.205-33.246zM570.641 387.789c0-0.853-0.068-1.673-0.222-2.526-0.512-3.26-2.048-6.246-4.386-8.567-3.021-2.987-6.997-4.608-11.213-4.608-8.721 0-15.821 7.031-15.821 15.701v87.586c0 8.67 7.1 15.701 15.821 15.701s15.821-7.031 15.821-15.701zM77.449 387.789c0-4.198-1.638-8.158-4.574-11.093-3.021-2.987-7.014-4.608-11.247-4.608-8.738 0-15.821 7.031-15.821 15.701v87.586c0 8.67 7.083 15.701 15.821 15.701 8.721 0 15.821-7.031 15.821-15.701zM77.449 545.604v-21.504c-4.983 1.621-10.308 2.475-15.821 2.475-5.53 0-10.837-0.853-15.821-2.458v28.655c0 118.17 96.887 214.306 216.030 214.306h92.774c119.125 0 216.030-96.137 216.030-214.306v-28.655c-4.983 1.604-10.308 2.458-15.821 2.458s-10.837-0.87-15.821-2.475v21.504c0 107.093-87.842 194.236-195.806 194.236h-69.922c-107.964 0.017-195.823-87.142-195.823-194.236zM113.254 354.338v76.339h96.393c48.367 0 95.027 14.319 134.946 41.421 31.095 21.094 56.388 48.811 74.342 81.169l84.275-117.009v-81.92c0-17.118-3.123-33.724-9.216-49.545h-120.73c-9.882 0-17.903-7.936-17.903-17.749 0-9.796 8.021-17.749 17.903-17.749h100.813c-9.318-12.066-20.617-22.596-33.502-31.13-10.069-6.707-21.094-12.1-32.751-16.043l-0.512-0.154-77.807-26.010c-13.619-4.557-28.928-4.557-42.598 0l-77.807 26.010c-11.793 3.942-23.006 9.404-33.28 16.196-39.185 25.975-62.566 69.393-62.566 116.173zM35.789 62.908c0 72.055 55.159 133.205 126.618 141.67 6.69-4.011 13.67-7.595 20.855-10.735l-21.999-126.020c-1.178-6.69 1.621-13.449 7.168-17.442 3.106-2.219 6.793-3.328 10.479-3.328 2.901 0 5.803 0.7 8.482 2.116l42.342 22.596 60.604-60.092v-40.175h-254.549z" />
<glyph unicode="&#xe912;" glyph-name="icon-maps" d="M833.666 478.77c0-0.413-0.206-0.877-0.206-1.29-0.258-1.084-0.877-4.335-1.961-9.289v-0.413c-5.367-24.255-13.366-47.839-23.945-70.546-0.258-0.206-0.258-0.671-0.464-0.877-40.356-95.885-128.809-242.137-321.301-401.601-192.543 159.464-281.048 305.716-321.404 401.601-0.206 0.206-0.206 0.671-0.413 0.877-10.373 22.449-18.32 46.291-23.894 70.546v0.413c-1.342 4.954-1.806 8.205-2.013 9.289 0 0.413-0.155 0.877-0.155 1.497-4.335 22.294-6.502 44.846-6.502 67.501 0 195.846 159.051 355.31 354.381 355.31 195.278 0 354.329-159.464 354.329-355.31 0-22.913-2.167-45.62-6.451-67.708zM485.787 959.999c-227.481 0-412.644-185.628-412.644-413.676 0-26.010 2.374-52.174 7.328-77.719 0.206-1.497 1.084-6.038 2.787-13.831 6.244-27.919 15.585-55.425 27.609-81.59 44.485-104.967 142.227-266.134 356.755-438.809 5.419-4.335 11.921-6.502 18.372-6.502 6.502 0 12.953 2.167 18.32 6.502 214.321 172.675 312.322 333.841 356.755 438.809 12.076 26.164 21.365 53.464 27.609 81.59 1.755 7.793 2.58 12.334 2.787 13.831 4.799 25.545 7.38 51.71 7.38 77.719-0.413 228.048-185.628 413.676-413.057 413.676zM485.777 337.482c-112.45 0-203.742 91.756-203.742 204.258 0 112.553 91.498 204.258 203.742 204.258s203.69-91.704 203.69-204.258c0-112.502-91.24-204.258-203.69-204.258zM485.777 804.417c-144.395 0-262.005-117.921-262.005-262.676s117.611-262.676 262.005-262.676c144.395 0 261.954 117.921 261.954 262.676s-117.559 262.676-261.954 262.676z" />
<glyph unicode="&#xe913;" glyph-name="instagram" d="M851.422 108.561c-90.658-90.658-211.2-140.561-339.422-140.561-128.205 0-248.747 49.903-339.388 140.561-90.675 90.658-140.612 211.2-140.612 339.439 0 128.188 49.937 248.729 140.612 339.388 90.641 90.675 211.2 140.595 339.388 140.595 128.222 0 248.764-49.92 339.422-140.595 90.658-90.658 140.578-211.183 140.578-339.388 0-128.239-49.92-248.781-140.578-339.439zM874.052 810.018c-96.7 96.717-225.297 149.982-362.052 149.982-136.738 0-265.318-53.265-362.018-149.982-96.717-96.7-149.982-225.28-149.982-362.018 0-136.79 53.265-265.353 149.982-362.052 96.683-96.7 225.28-149.948 362.018-149.948 136.772 0 265.352 53.248 362.052 149.948 96.683 96.7 149.948 225.263 149.948 362.052 0 136.738-53.265 265.335-149.948 362.018zM737.253 313.529c0-50.057-40.738-90.778-90.778-90.778h-267.947c-50.039 0-90.761 40.721-90.761 90.778v267.93c0 50.056 40.721 90.777 90.761 90.777h267.947c50.039 0 90.778-40.721 90.778-90.777zM646.476 704.68h-267.947c-67.942 0-123.204-55.262-123.204-123.221v-267.93c0-67.942 55.262-123.222 123.204-123.222h267.947c67.942 0 123.204 55.279 123.204 123.222v267.93c0 67.959-55.262 123.221-123.204 123.221zM656.27 610.678c-10.906 0-19.763-8.875-19.763-19.746 0-10.905 8.858-19.746 19.763-19.746 10.889 0 19.746 8.841 19.746 19.746 0 10.871-8.858 19.746-19.746 19.746zM512.505 353.862c-51.627 0-93.628 42.018-93.628 93.628 0 51.627 42.001 93.628 93.628 93.628 51.61 0 93.611-42.001 93.611-93.628 0-51.61-42.001-93.628-93.611-93.628zM512.505 573.561c-69.512 0-126.089-56.542-126.089-126.071 0-69.512 56.576-126.071 126.089-126.071s126.071 56.559 126.071 126.071c0 69.53-56.559 126.071-126.071 126.071z" />
<glyph unicode="&#xe914;" glyph-name="moca-atendimento" d="M0-47.22c0-9.242 7.521-16.78 16.78-16.78h0.275c9.242 0 16.763 7.538 16.763 16.78s-7.521 16.78-16.763 16.78c-9.534 0-17.055-7.538-17.055-16.78zM990.077-47.22c0-9.242 7.521-16.78 16.78-16.78h0.258c9.242 0 16.78 7.538 16.78 16.78s-7.538 16.78-16.78 16.78c-9.517 0-17.038-7.538-17.038-16.78zM588.803 532.205c-10.619 0-19.258-8.639-19.258-19.241 0-10.619 8.639-19.258 19.258-19.258 10.601 0 19.241 8.639 19.258 19.258 0 10.601-8.639 19.241-19.258 19.241zM435.106 532.205c-10.619 0-19.258-8.639-19.258-19.241 0-10.619 8.639-19.258 19.258-19.258s19.258 8.639 19.258 19.258c0 10.601-8.639 19.241-19.258 19.241zM222.68 698.052h-135.735c-9.259 0-16.78-7.521-16.78-16.78 0-9.242 7.521-16.763 16.78-16.763h135.735c9.259 0 16.78 7.521 16.78 16.763 0 9.259-7.521 16.78-16.78 16.78zM222.68 641.061h-135.735c-9.259 0-16.78-7.521-16.78-16.78 0-9.242 7.521-16.763 16.78-16.763h135.735c9.259 0 16.78 7.521 16.78 16.763 0 9.259-7.521 16.78-16.78 16.78zM164.116 584.053h-77.17c-9.259 0-16.78-7.521-16.78-16.78 0-9.242 7.521-16.763 16.78-16.763h77.17c9.242 0 16.763 7.521 16.763 16.763 0 9.259-7.521 16.78-16.763 16.78zM941.153 80.846c-2.805 0-5.094 2.289-5.094 5.094v33.577c0 7.865-5.576 14.749-13.269 16.401-42.801 9.070-89.423 9.035-131.863 0-7.693-1.652-13.286-8.536-13.286-16.401v-33.577c0-2.805-2.272-5.094-5.077-5.094l-44.264 0.017c-2.392 0-5.043 2.702-5.043 5.077v39.135c0 1.687 1.428 3.941 2.96 4.629 0.465 0.241 0.964 0.516 1.48 0.826 35.332 21.874 81.197 34.248 129.109 34.816 48.016-0.568 93.88-12.942 129.212-34.816 0.499-0.31 1.015-0.585 1.532-0.843 1.497-0.723 2.891-2.96 2.891-4.612v-39.135c0-2.805-2.272-5.094-5.077-5.094zM708.061 53.121c1.274-0.774 2.048-2.151 2.048-3.649v-75.621c0-2.358-1.928-4.302-4.302-4.302h-461.537c-2.375 0-4.302 1.945-4.302 4.302v142.499c0 25.367 15.902 51.148 37.001 59.942l129.075 53.781c1.205 0.482 2.564 0.447 3.717-0.189 1.136-0.62 1.945-1.721 2.186-3.012 8.812-48.188 50.924-83.193 100.11-83.193 49.083 0 91.11 35.005 99.904 83.193 0.241 1.291 1.050 2.392 2.186 3.012 1.136 0.637 2.53 0.671 3.717 0.189l118.146-49.221c1.583-0.671 2.599-2.186 2.633-3.907 0.034-1.704-0.929-3.253-2.495-3.976-8.966-4.113-17.468-8.605-25.333-13.424-12.907-6.729-21.099-20.205-21.099-34.454v-39.153c0-13.407 6.85-25.677 18.346-32.819zM580.105 288.295v-43.197c0-37.432-30.53-67.859-68.048-67.859-37.638 0-68.255 30.427-68.255 67.859v43.163c0 1.532 0.809 2.96 2.134 3.717 1.325 0.774 2.96 0.774 4.302 0.017l16.005-9.156c28.052-18.208 63.591-18.088 91.23-0.12l16.195 9.311c1.36 0.757 2.96 0.74 4.302 0 1.325-0.774 2.134-2.203 2.134-3.735zM559.66 402.707c0-7.865-6.402-14.267-14.284-14.267-7.865 0-14.284 6.402-14.284 14.267 0 7.882 6.419 14.284 14.284 14.284 7.882 0 14.284-6.402 14.284-14.284zM369.989 376.53c-0.103 0.052-0.189 0.103-0.293 0.155-17.107 11.582-28.551 32.819-30.599 56.776l-0.017 34.781c0 9.242-7.521 16.763-16.763 16.763-15.317 0-28.293 11.462-30.169 26.658 0 1.687-0.052 2.668-0.189 3.666 0.258 17.141 13.906 30.548 30.358 30.548 9.242 0 16.763 7.521 16.763 16.763v23.457c0 2.375 1.928 4.302 4.302 4.302h148.075c5.765 0 11.066 2.926 14.164 7.813l3.218 5.094c0.895 1.411 2.461 2.134 4.216 1.979 1.652-0.241 3.046-1.394 3.528-3.012 2.186-7.091 8.639-11.875 16.057-11.875h147.885c2.375 0 4.302-1.928 4.302-4.302v-23.457c0-9.242 7.521-16.763 16.78-16.763 16.78 0 30.427-13.648 30.427-30.444 0-9.517-4.612-18.621-12.271-24.369-1.755-1.256-4.13-1.119-5.628 0.396-3.184 3.184-7.383 4.939-11.875 4.939-9.242 0-16.745-7.538-16.745-16.78l-0.052-23.406c-0.516-20.308-17.33-36.726-37.518-36.726h-54.917c-1.687 0-3.235 0.998-3.924 2.547-7.693 17.313-24.834 28.5-43.731 28.5-26.348 0-47.809-21.461-47.809-47.827s21.461-47.809 47.809-47.809c18.897 0 36.055 11.169 43.731 28.482 0.688 1.549 2.237 2.564 3.924 2.564h54.917c1.824 0 3.631 0.086 5.404 0.224 2.048 0.189 3.683-0.964 4.354-2.736 0.688-1.773 0.12-3.803-1.394-4.956-0.826-0.62-1.618-1.222-2.427-1.807l-114.395-65.622c-8.588-5.679-18.053-8.519-27.519-8.519-9.483 0-18.965 2.84-27.605 8.553zM286.606 571.106c-1.325 0.774-2.134 2.186-2.134 3.717 0.189 135.391 98.011 237.48 227.516 237.48h0.31c129.591 0 227.413-102.193 227.516-237.687 0-1.514-0.826-2.943-2.134-3.7-0.671-0.396-1.411-0.602-2.168-0.602-0.74 0-1.48 0.189-2.134 0.585-3.976 2.255-8.020 4.079-12.030 5.404-1.79 0.568-2.977 2.22-2.977 4.079v26.796c0 9.242-7.521 16.78-16.78 16.78h-147.885c-2.375 0-4.302 1.928-4.302 4.302v43.989c0 7.435-4.974 14.061-12.099 16.109-7.108 2.117-14.887-0.843-18.845-7.125l-34.971-55.278c-0.792-1.239-2.168-1.996-3.649-1.996h-157.523c-9.259 0-16.78-7.538-16.78-16.78v-26.796c0-1.859-1.187-3.511-2.96-4.079-3.907-1.274-7.848-3.046-11.686-5.232-1.325-0.757-2.977-0.723-4.285 0.034zM250.93 574.411c0-15.73 1.394-31.563 4.165-47.052 0.224-1.239-0.12-2.53-0.929-3.511-0.826-0.964-2.031-1.549-3.304-1.549h-35.212c-8.725 0-15.902-6.54-16.694-15.214-0.138-1.532-1.084-2.874-2.478-3.528-0.568-0.258-1.187-0.396-1.807-0.396-0.878 0-1.738 0.275-2.478 0.792l-21.788 15.317c-2.84 1.979-6.161 3.029-9.655 3.029h-102.898c-13.338 0-24.197 10.859-24.197 24.214v155.561c0 13.321 10.859 24.18 24.197 24.18h228.153c1.549 0 2.977-0.826 3.735-2.168 0.774-1.342 0.757-2.995-0.034-4.32-25.367-42.956-38.774-93.209-38.774-145.355zM512.298 926.458c43.61 0 79.097-35.487 79.097-79.097 0-2.633-0.138-5.283-0.413-7.882-0.12-1.274-0.809-2.427-1.841-3.149-0.74-0.482-1.583-0.74-2.427-0.74-0.396 0-0.809 0.052-1.17 0.172-47.207 13.441-99.99 13.321-146.491 0.086-1.222-0.379-2.547-0.138-3.597 0.585-1.050 0.706-1.738 1.876-1.859 3.132-0.241 2.581-0.396 5.197-0.396 7.796 0 43.61 35.487 79.097 79.097 79.097zM991.957-0.058c9.259 0 16.78 7.504 16.78 16.745v36.485c0 1.256 0.568 2.461 1.532 3.27 8.708 7.4 13.716 18.139 13.716 29.498v39.135c0 14.267-8.175 27.742-20.824 34.299-0.103 0.052-0.189 0.103-0.275 0.155-40.426 24.8-92.211 38.774-145.854 39.359-23.767-0.258-46.828-3.029-68.978-8.261-1.377-0.361-2.822 0.034-3.855 0.998-7.504 6.746-15.661 12.013-24.352 15.627l-135.615 56.518c-6.419 2.65-10.584 8.898-10.584 15.868v32.819c0 1.549 0.843 2.96 2.168 3.735l55.072 31.58c27.398 18.036 44.763 49.203 47.431 83.95 0.017 0.31 0.069 2.96 0.138 6.11 0.086 5.456 0.224 12.426 0.293 13.166 0.155 1.704 1.308 3.167 2.943 3.717 23.75 7.882 40.788 29.033 43.438 53.867 5.507 21.65 8.226 43.61 8.226 65.828 0 72.609-25.781 140.347-72.609 190.738-21.667 23.302-47.104 42.027-75.603 55.623-1.79 0.843-2.754 2.788-2.358 4.733 1.411 7.211 2.151 14.577 2.151 21.857 0 62.094-50.546 112.639-112.639 112.639s-112.622-50.546-112.622-112.639c0-7.263 0.723-14.577 2.134-21.736 0.379-1.928-0.602-3.872-2.375-4.716-28.637-13.63-54.177-32.389-75.896-55.76l-3.545-3.907c-0.809-0.929-1.979-1.446-3.201-1.446h-258.941c-31.838 0-57.739-25.901-57.739-57.722v-155.561c0-31.838 25.901-57.739 57.739-57.739h96.255c0.878 0 1.738-0.275 2.461-0.792l49.444-34.747c5.025-3.511 11.961-3.958 17.365-1.153 5.593 2.908 9.052 8.605 9.052 14.887v17.485c0 2.375 1.928 4.302 4.302 4.302h24.765c1.618 0 3.098-0.912 3.838-2.341 7.693-15.042 21.254-26.624 37.242-31.838 1.773-0.568 2.96-2.22 2.96-4.079l0.052-18.776c2.685-34.885 19.946-66.052 46.192-83.382l1.015-0.637 55.296-31.615c1.342-0.757 2.168-2.186 2.168-3.735v-32.716c0-6.97-4.148-13.217-10.584-15.868l-135.615-56.518c-33.921-14.164-57.619-51.527-57.619-90.903v-142.499c0-2.358-1.928-4.302-4.302-4.302h-116.925c-9.242 0-16.763-7.521-16.763-16.763 0-9.259 7.521-16.78 16.763-16.78h853.46c9.259 0 16.78 7.521 16.78 16.78 0 9.242-7.521 16.763-16.78 16.763h-190.738c-2.358 0-4.302 1.945-4.302 4.302v69.15c0 2.358 1.945 4.302 4.302 4.302h24.627c21.272 0 38.619 17.33 38.619 38.636v15.954c0 2.134 1.549 3.941 3.666 4.251 27.467 4.079 56.5 4.079 84.002 0 2.117-0.31 3.683-2.117 3.683-4.251v-15.954c0-21.289 17.33-38.619 38.602-38.619h29.773c2.358 0 4.302-1.945 4.302-4.302v-26.331c0-9.242 7.504-16.745 16.745-16.745zM417.149 68.678c0-9.242 7.521-16.78 16.78-16.78h0.31c9.242 0 16.763 7.538 16.763 16.78s-7.521 16.78-16.763 16.78c-9.569 0-17.089-7.538-17.089-16.78zM363.829 85.451h-61.491c-9.242 0-16.763-7.521-16.763-16.78 0-9.242 7.521-16.763 16.763-16.763h61.491c9.259 0 16.78 7.521 16.78 16.763 0 9.259-7.521 16.78-16.78 16.78z" />
<glyph unicode="&#xe915;" glyph-name="seta" d="M803.445 395.491l-456.975-441.802c-29.158-28.022-76.273-28.022-105.329 0-28.951 28.125-28.951 73.694 0 101.768l404.337 390.867-404.285 390.866c-29.003 28.074-29.003 73.591 0 101.716 29.106 28.125 76.224 28.125 105.277 0l456.975-441.75c14.497-14.038 21.778-32.409 21.778-50.832 0-18.372-7.27-36.847-21.778-50.832z" />
</font></defs></svg>