{
    "/js/admin.js": "/js/admin.js",
    "/css/admin/admin.css": "/css/admin/admin.css",
    "/css/admin/login.css": "/css/admin/login.css",
    "/css/app/app.css": "/css/app/app.css",
    "/css/app/sites/crz.css": "/css/app/sites/crz.css",
    "/css/app/sites/direct.css": "/css/app/sites/direct.css",
    "/css/app/sites/vibe.css": "/css/app/sites/vibe.css",
    "/css/app/sites/vsp.css": "/css/app/sites/vsp.css"
}